<?xml version="1.0" encoding="utf-8"?><graphml xmlns="http://graphml.graphdrawing.org/xmlns" xmlns:xsi="http://www.w3.org/2001/XMLSchema-instance" xsi:schemaLocation="http://graphml.graphdrawing.org/xmlns http://graphml.graphdrawing.org/xmlns/1.0/graphml.xsd">
  <key attr.name="Lazy" attr.type="string" for="node" id="d3" />
  <key attr.name="ModeOR" attr.type="string" for="node" id="d2" />
  <key attr.name="class" attr.type="string" for="node" id="d1" />
  <key attr.name="type" attr.type="string" for="node" id="d0" />
  <graph edgedefault="directed">
    <node id="Rich::Rec::MC::TracklessRingMoni/ENNRingMoniIsolated">
      <data key="d0">Algorithm</data>
      <data key="d1">Rich::Rec::MC::TracklessRingMoni</data>
    </node>
    <node id="GaudiSequencer/CaloProcessorCaloSeq">
      <data key="d2">False</data>
      <data key="d3">True</data>
      <data key="d0">DecisionHub</data>
      <data key="d1">GaudiSequencer</data>
    </node>
    <node id="PackCaloHypo/PackMergedPi0s">
      <data key="d0">Algorithm</data>
      <data key="d1">PackCaloHypo</data>
    </node>
    <node id="GaudiSequencer/CaloDLLmu">
      <data key="d2">False</data>
      <data key="d3">True</data>
      <data key="d0">DecisionHub</data>
      <data key="d1">GaudiSequencer</data>
    </node>
    <node id="GaudiSequencer/RecoTTSeq">
      <data key="d0">DecisionHub</data>
      <data key="d1">GaudiSequencer</data>
    </node>
    <node id="MuonTrackAligMonitor/MuonTrackAligMonitor">
      <data key="d0">Algorithm</data>
      <data key="d1">MuonTrackAligMonitor</data>
    </node>
    <node id="PatDownstream/PatDownstream">
      <data key="d0">Algorithm</data>
      <data key="d1">PatDownstream</data>
    </node>
    <node id="BremMatchAlg/BremMatch">
      <data key="d0">Algorithm</data>
      <data key="d1">BremMatchAlg</data>
    </node>
    <node id="GaudiSequencer/RecoDecodingSeq">
      <data key="d2">False</data>
      <data key="d3">True</data>
      <data key="d0">DecisionHub</data>
      <data key="d1">GaudiSequencer</data>
    </node>
    <node id="LumiAccounting/LumiCountNoBeam">
      <data key="d0">Algorithm</data>
      <data key="d1">LumiAccounting</data>
    </node>
    <node id="GaudiSequencer/CaloChi2">
      <data key="d2">False</data>
      <data key="d3">True</data>
      <data key="d0">DecisionHub</data>
      <data key="d1">GaudiSequencer</data>
    </node>
    <node id="GaudiSequencer/RichOfflineTracksSeq">
      <data key="d2">False</data>
      <data key="d3">True</data>
      <data key="d0">DecisionHub</data>
      <data key="d1">GaudiSequencer</data>
    </node>
    <node id="ANNGlobalPID::ChargedProtoANNPIDAlg/ANNGPIDLongPion">
      <data key="d0">Algorithm</data>
      <data key="d1">ANNGlobalPID::ChargedProtoANNPIDAlg</data>
    </node>
    <node id="PatVeloTT/PatVeloTT">
      <data key="d0">Algorithm</data>
      <data key="d1">PatVeloTT</data>
    </node>
    <node id="GaudiSequencer/LumiSeq">
      <data key="d2">True</data>
      <data key="d3">True</data>
      <data key="d0">DecisionHub</data>
      <data key="d1">GaudiSequencer</data>
    </node>
    <node id="GaudiSequencer/TrackForwardPatSeq">
      <data key="d2">False</data>
      <data key="d3">True</data>
      <data key="d0">DecisionHub</data>
      <data key="d1">GaudiSequencer</data>
    </node>
    <node id="GaudiSequencer/RichOfflinePIDSeq">
      <data key="d2">False</data>
      <data key="d3">True</data>
      <data key="d0">DecisionHub</data>
      <data key="d1">GaudiSequencer</data>
    </node>
    <node id="LoKi::ODINFilter/TimeSpanFilter">
      <data key="d0">Algorithm</data>
      <data key="d1">LoKi::ODINFilter</data>
    </node>
    <node id="CaloSinglePhotonAlg/SinglePhotonRec">
      <data key="d0">Algorithm</data>
      <data key="d1">CaloSinglePhotonAlg</data>
    </node>
    <node id="GaudiSequencer/NeutralProtoParticles">
      <data key="d2">False</data>
      <data key="d3">True</data>
      <data key="d0">DecisionHub</data>
      <data key="d1">GaudiSequencer</data>
    </node>
    <node id="PackProtoParticle/PackChargedProtos">
      <data key="d0">Algorithm</data>
      <data key="d1">PackProtoParticle</data>
    </node>
    <node id="HltRateMonitor/HltRateMonitorMB">
      <data key="d0">Algorithm</data>
      <data key="d1">HltRateMonitor</data>
    </node>
    <node id="EcalPIDeAlg/EcalPIDe">
      <data key="d0">Algorithm</data>
      <data key="d1">EcalPIDeAlg</data>
    </node>
    <node id="GaudiSequencer/RichMirrAlignMoni">
      <data key="d2">False</data>
      <data key="d3">True</data>
      <data key="d0">DecisionHub</data>
      <data key="d1">GaudiSequencer</data>
    </node>
    <node id="GaudiSequencer/PhysicsSeq">
      <data key="d2">False</data>
      <data key="d3">True</data>
      <data key="d0">DecisionHub</data>
      <data key="d1">GaudiSequencer</data>
    </node>
    <node id="GaudiSequencer/OutputDSTSeq">
      <data key="d2">False</data>
      <data key="d3">True</data>
      <data key="d0">DecisionHub</data>
      <data key="d1">GaudiSequencer</data>
    </node>
    <node id="Rich::Rec::TracklessRingFilterAlg/OfflineBestENNRings">
      <data key="d0">Algorithm</data>
      <data key="d1">Rich::Rec::TracklessRingFilterAlg</data>
    </node>
    <node id="PatSeeding/PatSeeding">
      <data key="d0">Algorithm</data>
      <data key="d1">PatSeeding</data>
    </node>
    <node id="LoKi::ODINFilter/FilterBeamCrossing">
      <data key="d0">Algorithm</data>
      <data key="d1">LoKi::ODINFilter</data>
    </node>
    <node id="DataPacking::Pack&lt;LHCb::MuonPIDPacker&gt;/PackMuonPIDs">
      <data key="d0">Algorithm</data>
      <data key="d1">DataPacking::Pack&lt;LHCb::MuonPIDPacker&gt;</data>
    </node>
    <node id="GaudiSequencer/RecoVELOSeq">
      <data key="d2">False</data>
      <data key="d3">True</data>
      <data key="d0">DecisionHub</data>
      <data key="d1">GaudiSequencer</data>
    </node>
    <node id="GaudiSequencer/PrsDigitsSeq">
      <data key="d2">False</data>
      <data key="d3">True</data>
      <data key="d0">DecisionHub</data>
      <data key="d1">GaudiSequencer</data>
    </node>
    <node id="CaloEFlowAlg/EcalEFlowMon">
      <data key="d0">Algorithm</data>
      <data key="d1">CaloEFlowAlg</data>
    </node>
    <node id="GaudiAlgorithm/DstWriter">
      <data key="d0">Algorithm</data>
    </node>
    <node id="ANNGlobalPID::ChargedProtoANNPIDAlg/ANNGPIDDownstreamProton">
      <data key="d0">Algorithm</data>
      <data key="d1">ANNGlobalPID::ChargedProtoANNPIDAlg</data>
    </node>
    <node id="HcalPIDeAlg/HcalPIDe">
      <data key="d0">Algorithm</data>
      <data key="d1">HcalPIDeAlg</data>
    </node>
    <node id="SpdMonitor/SpdMon">
      <data key="d0">Algorithm</data>
      <data key="d1">SpdMonitor</data>
    </node>
    <node id="Rich::Rec::MC::RecoQC/RiCKResSeed">
      <data key="d0">Algorithm</data>
      <data key="d1">Rich::Rec::MC::RecoQC</data>
    </node>
    <node id="CaloProtoElectronMonitor/ProtoElectronMon">
      <data key="d0">Algorithm</data>
      <data key="d1">CaloProtoElectronMonitor</data>
    </node>
    <node id="InSpdAcceptanceAlg/InSPD">
      <data key="d0">Algorithm</data>
      <data key="d1">InSpdAcceptanceAlg</data>
    </node>
    <node id="OTTrackMonitor/OTTrackMonitor">
      <data key="d0">Algorithm</data>
      <data key="d1">OTTrackMonitor</data>
    </node>
    <node id="EventCountHisto/BrunelEventCount">
      <data key="d0">Algorithm</data>
      <data key="d1">EventCountHisto</data>
    </node>
    <node id="GaudiSequencer/HltFilterSeq">
      <data key="d2">False</data>
      <data key="d3">True</data>
      <data key="d0">DecisionHub</data>
      <data key="d1">GaudiSequencer</data>
    </node>
    <node id="CaloHypoMonitor/PhotonMon">
      <data key="d0">Algorithm</data>
      <data key="d1">CaloHypoMonitor</data>
    </node>
    <node id="Rich::Rec::TracklessRingIsolationAlg/OfflineIsolatedENNRings">
      <data key="d0">Algorithm</data>
      <data key="d1">Rich::Rec::TracklessRingIsolationAlg</data>
    </node>
    <node id="TrackPV2HalfAlignMonitor/TrackPV2HalfAlignMonitor">
      <data key="d0">Algorithm</data>
      <data key="d1">TrackPV2HalfAlignMonitor</data>
    </node>
    <node id="Velo::VeloIPResolutionMonitor/VeloIPResolutionMonitor">
      <data key="d0">Algorithm</data>
      <data key="d1">Velo::VeloIPResolutionMonitor</data>
    </node>
    <node id="GaudiSequencer/TrackDownstreamPatSeq">
      <data key="d2">False</data>
      <data key="d3">True</data>
      <data key="d0">DecisionHub</data>
      <data key="d1">GaudiSequencer</data>
    </node>
    <node id="EventNodeKiller/KillRawEventNodes">
      <data key="d0">Algorithm</data>
      <data key="d1">EventNodeKiller</data>
    </node>
    <node id="GaudiSequencer/RecoCALOSeq">
      <data key="d2">False</data>
      <data key="d3">True</data>
      <data key="d0">DecisionHub</data>
      <data key="d1">GaudiSequencer</data>
    </node>
    <node id="CaloPhotonIdAlg/PhotonID">
      <data key="d0">Algorithm</data>
      <data key="d1">CaloPhotonIdAlg</data>
    </node>
    <node id="ChargedProtoParticleAddPrsInfo/ChargedProtoPAddPrs">
      <data key="d0">Algorithm</data>
      <data key="d1">ChargedProtoParticleAddPrsInfo</data>
    </node>
    <node id="GaudiSequencer/PhotonReco">
      <data key="d2">False</data>
      <data key="d3">True</data>
      <data key="d0">DecisionHub</data>
      <data key="d1">GaudiSequencer</data>
    </node>
    <node id="ProcessPhase/Output">
      <data key="d2">False</data>
      <data key="d3">True</data>
      <data key="d0">DecisionHub</data>
      <data key="d1">ProcessPhase</data>
    </node>
    <node id="ANNGlobalPID::ChargedProtoANNPIDAlg/ANNGPIDLongProton">
      <data key="d0">Algorithm</data>
      <data key="d1">ANNGlobalPID::ChargedProtoANNPIDAlg</data>
    </node>
    <node id="TrackV0Finder/TrackV0Finder">
      <data key="d0">Algorithm</data>
      <data key="d1">TrackV0Finder</data>
    </node>
    <node id="MuonRec">
      <data key="d0">Algorithm</data>
      <data key="d1">GaudiAlgorithm</data>
    </node>
    <node id="GaudiSequencer/RichPIDMoni">
      <data key="d2">False</data>
      <data key="d3">True</data>
      <data key="d0">DecisionHub</data>
      <data key="d1">GaudiSequencer</data>
    </node>
    <node id="GaudiSequencer/RecoSUMMARYSeq">
      <data key="d2">False</data>
      <data key="d3">True</data>
      <data key="d0">DecisionHub</data>
      <data key="d1">GaudiSequencer</data>
    </node>
    <node id="ChargedProtoParticleMoni/ChargedProtoPMoni">
      <data key="d0">Algorithm</data>
      <data key="d1">ChargedProtoParticleMoni</data>
    </node>
    <node id="FakeAlgorithm/Framework">
      <data key="d0">Algorithm</data>
    </node>
    <node id="Rich::Rec::Initialise/CreateOfflinePixels">
      <data key="d0">Algorithm</data>
      <data key="d1">Rich::Rec::Initialise</data>
    </node>
    <node id="DataPacking::Pack&lt;LHCb::RichPIDPacker&gt;/PackRichPIDs">
      <data key="d0">Algorithm</data>
      <data key="d1">DataPacking::Pack&lt;LHCb::RichPIDPacker&gt;</data>
    </node>
    <node id="TrackEraseExtraInfo/TrackEraseExtraInfo">
      <data key="d0">Algorithm</data>
      <data key="d1">TrackEraseExtraInfo</data>
    </node>
    <node id="Rich::Rec::MC::RecoQC/RiCKResSeedTight">
      <data key="d0">Algorithm</data>
      <data key="d1">Rich::Rec::MC::RecoQC</data>
    </node>
    <node id="L0DUFromRawAlg/L0DUFromRaw">
      <data key="d0">Algorithm</data>
      <data key="d1">L0DUFromRawAlg</data>
    </node>
    <node id="GaudiSequencer/MoniTrSeq">
      <data key="d2">False</data>
      <data key="d3">True</data>
      <data key="d0">DecisionHub</data>
      <data key="d1">GaudiSequencer</data>
    </node>
    <node id="GaudiSequencer/TrackAddExtraInfoSeq">
      <data key="d2">False</data>
      <data key="d3">True</data>
      <data key="d0">DecisionHub</data>
      <data key="d1">GaudiSequencer</data>
    </node>
    <node id="ChargedProtoParticleAddMuonInfo/ChargedProtoPAddMuon">
      <data key="d0">Algorithm</data>
      <data key="d1">ChargedProtoParticleAddMuonInfo</data>
    </node>
    <node id="RecProcessingTimeMoni/ProtoEventProcTime">
      <data key="d0">Algorithm</data>
      <data key="d1">RecProcessingTimeMoni</data>
    </node>
    <node id="HltLumiSummaryDecoder/LumiDecodeBeamCrossing">
      <data key="d0">Algorithm</data>
      <data key="d1">HltLumiSummaryDecoder</data>
    </node>
    <node id="Rich::Rec::MC::RecoQC/RiCKResVeloTT">
      <data key="d0">Algorithm</data>
      <data key="d1">Rich::Rec::MC::RecoQC</data>
    </node>
    <node id="Rich::Rec::MC::RecoQC/RiCKResKsTrack">
      <data key="d0">Algorithm</data>
      <data key="d1">Rich::Rec::MC::RecoQC</data>
    </node>
    <node id="CaloElectronAlg/SingleElectronRec">
      <data key="d0">Algorithm</data>
      <data key="d1">CaloElectronAlg</data>
    </node>
    <node id="FilterOnLumiSummary/LumiFilterBeamCrossing">
      <data key="d0">Algorithm</data>
      <data key="d1">FilterOnLumiSummary</data>
    </node>
    <node id="ANNGlobalPID::ChargedProtoANNPIDAlg/ANNGPIDUpstreamGhost">
      <data key="d0">Algorithm</data>
      <data key="d1">ANNGlobalPID::ChargedProtoANNPIDAlg</data>
    </node>
    <node id="CaloEMuPIDMon/CaloEMuPIDMonUncut">
      <data key="d0">Algorithm</data>
      <data key="d1">CaloEMuPIDMon</data>
    </node>
    <node id="GaudiSequencer/MoniPROTOSeq">
      <data key="d2">False</data>
      <data key="d3">True</data>
      <data key="d0">DecisionHub</data>
      <data key="d1">GaudiSequencer</data>
    </node>
    <node id="BremChi22ID/BremChi22ID">
      <data key="d0">Algorithm</data>
      <data key="d1">BremChi22ID</data>
    </node>
    <node id="GaudiSequencer/CaloClustersMoni">
      <data key="d2">False</data>
      <data key="d3">True</data>
      <data key="d0">DecisionHub</data>
      <data key="d1">GaudiSequencer</data>
    </node>
    <node id="ChargedProtoParticleAddVeloInfo/ChargedProtoPAddVeloDEDX">
      <data key="d0">Algorithm</data>
      <data key="d1">ChargedProtoParticleAddVeloInfo</data>
    </node>
    <node id="ChargedProtoParticleMaker/ChargedProtoPMaker">
      <data key="d0">Algorithm</data>
      <data key="d1">ChargedProtoParticleMaker</data>
    </node>
    <node id="ChargedProtoParticleAddRichInfo/ChargedProtoPAddRich">
      <data key="d0">Algorithm</data>
      <data key="d1">ChargedProtoParticleAddRichInfo</data>
    </node>
    <node id="CaloZSupAlg/HcalZSup">
      <data key="d0">Algorithm</data>
      <data key="d1">CaloZSupAlg</data>
    </node>
    <node id="ChargedProtoParticleAddSpdInfo/ChargedProtoPAddSpd">
      <data key="d0">Algorithm</data>
      <data key="d1">ChargedProtoParticleAddSpdInfo</data>
    </node>
    <node id="PackRecVertex/PackRecVertex">
      <data key="d0">Algorithm</data>
      <data key="d1">PackRecVertex</data>
    </node>
    <node id="Rich::Rec::GlobalPID::DigitSel/RichOfflineGPIDDigSel">
      <data key="d0">Algorithm</data>
      <data key="d1">Rich::Rec::GlobalPID::DigitSel</data>
    </node>
    <node id="BremPIDeAlg/BremPIDe">
      <data key="d0">Algorithm</data>
      <data key="d1">BremPIDeAlg</data>
    </node>
    <node id="ST::STClusterMonitor/TTClusterMonitor">
      <data key="d0">Algorithm</data>
      <data key="d1">ST::STClusterMonitor</data>
    </node>
    <node id="RecProcessingTimeMoni/MuonEventProcTime">
      <data key="d0">Algorithm</data>
      <data key="d1">RecProcessingTimeMoni</data>
    </node>
    <node id="PatMatch/PatMatch">
      <data key="d0">Algorithm</data>
      <data key="d1">PatMatch</data>
    </node>
    <node id="GaudiSequencer/TrackClonesSeq">
      <data key="d2">False</data>
      <data key="d3">True</data>
      <data key="d0">DecisionHub</data>
      <data key="d1">GaudiSequencer</data>
    </node>
    <node id="Rich::Rec::HierarchicalPIDMerge/MergeOfflineRichPIDs">
      <data key="d0">Algorithm</data>
      <data key="d1">Rich::Rec::HierarchicalPIDMerge</data>
    </node>
    <node id="ChargedProtoParticleAddHcalInfo/ChargedProtoPAddHcal">
      <data key="d0">Algorithm</data>
      <data key="d1">ChargedProtoParticleAddHcalInfo</data>
    </node>
    <node id="RawBankToSTClusterAlg/createTTClusters">
      <data key="d0">Algorithm</data>
      <data key="d1">RawBankToSTClusterAlg</data>
    </node>
    <node id="Rich::Rec::MC::TrackSelEff/RiVeloTTTrkEff">
      <data key="d0">Algorithm</data>
      <data key="d1">Rich::Rec::MC::TrackSelEff</data>
    </node>
    <node id="GaudiSequencer/CaloEFlowMoni">
      <data key="d2">False</data>
      <data key="d3">True</data>
      <data key="d0">DecisionHub</data>
      <data key="d1">GaudiSequencer</data>
    </node>
    <node id="HltRateMonitor/HltRateMonitor">
      <data key="d0">Algorithm</data>
      <data key="d1">HltRateMonitor</data>
    </node>
    <node id="RecProcessingTimeMoni/TrackEventProcTime">
      <data key="d0">Algorithm</data>
      <data key="d1">RecProcessingTimeMoni</data>
    </node>
    <node id="GaudiSequencer/CaloTrackMatch">
      <data key="d2">False</data>
      <data key="d3">True</data>
      <data key="d0">DecisionHub</data>
      <data key="d1">GaudiSequencer</data>
    </node>
    <node id="GaudiSequencer/ChargedProtoParticles">
      <data key="d2">False</data>
      <data key="d3">True</data>
      <data key="d0">DecisionHub</data>
      <data key="d1">GaudiSequencer</data>
    </node>
    <node id="Rich::Rec::MC::TrackSelEff/RiSeedTrkEff">
      <data key="d0">Algorithm</data>
      <data key="d1">Rich::Rec::MC::TrackSelEff</data>
    </node>
    <node id="RecProcessingTimeMoni/OverallEventProcTime">
      <data key="d0">Algorithm</data>
      <data key="d1">RecProcessingTimeMoni</data>
    </node>
    <node id="GaudiSequencer/MoniRICHSeq">
      <data key="d2">False</data>
      <data key="d3">True</data>
      <data key="d0">DecisionHub</data>
      <data key="d1">GaudiSequencer</data>
    </node>
    <node id="ANNGlobalPID::ChargedProtoANNPIDAlg/ANNGPIDLongKaon">
      <data key="d0">Algorithm</data>
      <data key="d1">ANNGlobalPID::ChargedProtoANNPIDAlg</data>
    </node>
    <node id="GaudiSequencer/RichOfflineGPIDInitSeq">
      <data key="d2">False</data>
      <data key="d3">True</data>
      <data key="d0">DecisionHub</data>
      <data key="d1">GaudiSequencer</data>
    </node>
    <node id="HcalPIDmuAlg/HcalPIDmu">
      <data key="d0">Algorithm</data>
      <data key="d1">HcalPIDmuAlg</data>
    </node>
    <node id="OTHitEfficiencyMonitor/OTHitEfficiencyMonitor">
      <data key="d0">Algorithm</data>
      <data key="d1">OTHitEfficiencyMonitor</data>
    </node>
    <node id="PackTrack/PackMuonTracks">
      <data key="d0">Algorithm</data>
      <data key="d1">PackTrack</data>
    </node>
    <node id="TrackCaloMatchMonitor/TrackEcalMatchMonitor">
      <data key="d0">Algorithm</data>
      <data key="d1">TrackCaloMatchMonitor</data>
    </node>
    <node id="Rich::Rec::MC::TracklessRingMoni/ENNRingMoniAll">
      <data key="d0">Algorithm</data>
      <data key="d1">Rich::Rec::MC::TracklessRingMoni</data>
    </node>
    <node id="ANNGlobalPID::ChargedProtoANNPIDAlg/ANNGPIDUpstreamPion">
      <data key="d0">Algorithm</data>
      <data key="d1">ANNGlobalPID::ChargedProtoANNPIDAlg</data>
    </node>
    <node id="CaloHypoMonitor/ElectronMon">
      <data key="d0">Algorithm</data>
      <data key="d1">CaloHypoMonitor</data>
    </node>
    <node id="Rich::DAQ::DataDBCheck/RichRawDataDBCheck">
      <data key="d0">Algorithm</data>
      <data key="d1">Rich::DAQ::DataDBCheck</data>
    </node>
    <node id="RawEventMapCombiner/create_Rich_RawEvent">
      <data key="d0">Algorithm</data>
      <data key="d1">RawEventMapCombiner</data>
    </node>
    <node id="RawEventMapCombiner/create_Muon_RawEvent">
      <data key="d0">Algorithm</data>
      <data key="d1">RawEventMapCombiner</data>
    </node>
    <node id="Track2EcalEAlg/EcalE">
      <data key="d0">Algorithm</data>
      <data key="d1">Track2EcalEAlg</data>
    </node>
    <node id="GaudiSequencer/CaloPIDsCaloPIDsForCaloProcessor">
      <data key="d2">False</data>
      <data key="d3">True</data>
      <data key="d0">DecisionHub</data>
      <data key="d1">GaudiSequencer</data>
    </node>
    <node id="Rich::Rec::MC::TracklessRingMoni/ENNRingMoniBest">
      <data key="d0">Algorithm</data>
      <data key="d1">Rich::Rec::MC::TracklessRingMoni</data>
    </node>
    <node id="ANNGlobalPID::ChargedProtoANNPIDAlg/ANNGPIDDownstreamGhost">
      <data key="d0">Algorithm</data>
      <data key="d1">ANNGlobalPID::ChargedProtoANNPIDAlg</data>
    </node>
    <node id="GaudiSequencer/CaloBanksHandler">
      <data key="d2">False</data>
      <data key="d3">True</data>
      <data key="d0">DecisionHub</data>
      <data key="d1">GaudiSequencer</data>
    </node>
    <node id="GaudiSequencer/RecoPROTOSeq">
      <data key="d2">False</data>
      <data key="d3">True</data>
      <data key="d0">DecisionHub</data>
      <data key="d1">GaudiSequencer</data>
    </node>
    <node id="Track2PrsEAlg/PrsE">
      <data key="d0">Algorithm</data>
      <data key="d1">Track2PrsEAlg</data>
    </node>
    <node id="CaloHypoMonitor/SplitPhotonMon">
      <data key="d0">Algorithm</data>
      <data key="d1">CaloHypoMonitor</data>
    </node>
    <node id="TrackV0Monitor/TrackV0Monitor">
      <data key="d0">Algorithm</data>
      <data key="d1">TrackV0Monitor</data>
    </node>
    <node id="Rich::Rec::MC::RecoQC/RiCKResForward">
      <data key="d0">Algorithm</data>
      <data key="d1">Rich::Rec::MC::RecoQC</data>
    </node>
    <node id="ST::STClusterMonitor/ITClusterMonitor">
      <data key="d0">Algorithm</data>
      <data key="d1">ST::STClusterMonitor</data>
    </node>
    <node id="TrackCaloMatchMonitor/TrackPrsMatchMonitor">
      <data key="d0">Algorithm</data>
      <data key="d1">TrackCaloMatchMonitor</data>
    </node>
    <node id="Rich::Rec::MC::AlignmentMonitor/RichAlignMoniR2Gas">
      <data key="d0">Algorithm</data>
      <data key="d1">Rich::Rec::MC::AlignmentMonitor</data>
    </node>
    <node id="GaudiSequencer/RichRawDataSizeL0Seq">
      <data key="d2">False</data>
      <data key="d3">True</data>
      <data key="d0">DecisionHub</data>
      <data key="d1">GaudiSequencer</data>
    </node>
    <node id="GaudiSequencer/RecoOTSeq">
      <data key="d0">DecisionHub</data>
      <data key="d1">GaudiSequencer</data>
    </node>
    <node id="LoKi::ODINFilter/FilterBeam1">
      <data key="d0">Algorithm</data>
      <data key="d1">LoKi::ODINFilter</data>
    </node>
    <node id="LoKi::ODINFilter/FilterBeam2">
      <data key="d0">Algorithm</data>
      <data key="d1">LoKi::ODINFilter</data>
    </node>
    <node id="CaloEMuPIDMon/CaloEMuPIDMonHard">
      <data key="d0">Algorithm</data>
      <data key="d1">CaloEMuPIDMon</data>
    </node>
    <node id="GaudiSequencer/RecoMUONSeq">
      <data key="d2">False</data>
      <data key="d3">True</data>
      <data key="d0">DecisionHub</data>
      <data key="d1">GaudiSequencer</data>
    </node>
    <node id="GaudiSequencer/RichOfflineGPIDLLSeq">
      <data key="d2">False</data>
      <data key="d3">True</data>
      <data key="d0">DecisionHub</data>
      <data key="d1">GaudiSequencer</data>
    </node>
    <node id="GaudiSequencer/LumiCounters">
      <data key="d2">True</data>
      <data key="d3">False</data>
      <data key="d0">DecisionHub</data>
      <data key="d1">GaudiSequencer</data>
    </node>
    <node id="RawBankToSTLiteClusterAlg/createTTLiteClusters">
      <data key="d0">Algorithm</data>
      <data key="d1">RawBankToSTLiteClusterAlg</data>
    </node>
    <node id="Rich::Rec::MC::TrackSelEff/RiForwardTrkEff">
      <data key="d0">Algorithm</data>
      <data key="d1">Rich::Rec::MC::TrackSelEff</data>
    </node>
    <node id="GaudiSequencer/InCaloAcceptance">
      <data key="d2">False</data>
      <data key="d3">True</data>
      <data key="d0">DecisionHub</data>
      <data key="d1">GaudiSequencer</data>
    </node>
    <node id="CaloSharedCellAlg/EcalShare">
      <data key="d0">Algorithm</data>
      <data key="d1">CaloSharedCellAlg</data>
    </node>
    <node id="Track2SpdEAlg/SpdE">
      <data key="d0">Algorithm</data>
      <data key="d1">Track2SpdEAlg</data>
    </node>
    <node id="ChargedProtoParticleAddEcalInfo/ChargedProtoPAddEcal">
      <data key="d0">Algorithm</data>
      <data key="d1">ChargedProtoParticleAddEcalInfo</data>
    </node>
    <node id="RawEventMapCombiner/create_Trigger_RawEvent">
      <data key="d0">Algorithm</data>
      <data key="d1">RawEventMapCombiner</data>
    </node>
    <node id="EventTimeMonitor/EventTimeMonitor">
      <data key="d0">Algorithm</data>
      <data key="d1">EventTimeMonitor</data>
    </node>
    <node id="RawEventMapCombiner/create_Other_RawEvent">
      <data key="d0">Algorithm</data>
      <data key="d1">RawEventMapCombiner</data>
    </node>
    <node id="TrackMonitor/TrackMonitor">
      <data key="d0">Algorithm</data>
      <data key="d1">TrackMonitor</data>
    </node>
    <node id="GaudiSequencer/RichRecoMoni">
      <data key="d2">False</data>
      <data key="d3">True</data>
      <data key="d0">DecisionHub</data>
      <data key="d1">GaudiSequencer</data>
    </node>
    <node id="RecSummaryAlg/RecSummary">
      <data key="d0">Algorithm</data>
      <data key="d1">RecSummaryAlg</data>
    </node>
    <node id="InPrsAcceptanceAlg/InPRS">
      <data key="d0">Algorithm</data>
      <data key="d1">InPrsAcceptanceAlg</data>
    </node>
    <node id="Rich::DAQ::DataDecodingErrorMoni/RichDecodingErrors">
      <data key="d0">Algorithm</data>
      <data key="d1">Rich::DAQ::DataDecodingErrorMoni</data>
    </node>
    <node id="Rich::Rec::MC::TrackSelEff/RiLongTrkEff">
      <data key="d0">Algorithm</data>
      <data key="d1">Rich::Rec::MC::TrackSelEff</data>
    </node>
    <node id="GaudiSequencer/MoniCALOSeq">
      <data key="d2">False</data>
      <data key="d3">True</data>
      <data key="d0">DecisionHub</data>
      <data key="d1">GaudiSequencer</data>
    </node>
    <node id="DecodeVeloRawBuffer/createBothVeloClusters">
      <data key="d0">Algorithm</data>
      <data key="d1">DecodeVeloRawBuffer</data>
    </node>
    <node id="Rich::Rec::MC::RecoQC/RiCKResForwardTight">
      <data key="d0">Algorithm</data>
      <data key="d1">Rich::Rec::MC::RecoQC</data>
    </node>
    <node id="GaudiSequencer/NeutralPIDsCaloPIDsForCaloProcessor">
      <data key="d2">False</data>
      <data key="d3">True</data>
      <data key="d0">DecisionHub</data>
      <data key="d1">GaudiSequencer</data>
    </node>
    <node id="Rich::Rec::MC::RecoQC/RiCKResMatch">
      <data key="d0">Algorithm</data>
      <data key="d1">Rich::Rec::MC::RecoQC</data>
    </node>
    <node id="GaudiSequencer/TrackVeloTTPatSeq">
      <data key="d2">False</data>
      <data key="d3">True</data>
      <data key="d0">DecisionHub</data>
      <data key="d1">GaudiSequencer</data>
    </node>
    <node id="EcalPIDmuAlg/EcalPIDmu">
      <data key="d0">Algorithm</data>
      <data key="d1">EcalPIDmuAlg</data>
    </node>
    <node id="GaudiSequencer/TimeSpanSeq">
      <data key="d2">False</data>
      <data key="d3">True</data>
      <data key="d0">DecisionHub</data>
      <data key="d1">GaudiSequencer</data>
    </node>
    <node id="GaudiSequencer/MoniMUONSeq">
      <data key="d2">False</data>
      <data key="d3">True</data>
      <data key="d0">DecisionHub</data>
      <data key="d1">GaudiSequencer</data>
    </node>
    <node id="ProcessPhase/Init">
      <data key="d2">False</data>
      <data key="d3">True</data>
      <data key="d0">DecisionHub</data>
      <data key="d1">ProcessPhase</data>
    </node>
    <node id="GaudiSequencer/TrackSeedPatSeq">
      <data key="d2">False</data>
      <data key="d3">True</data>
      <data key="d0">DecisionHub</data>
      <data key="d1">GaudiSequencer</data>
    </node>
    <node id="Rich::Rec::PixelClusterMoni/RichRecPixelClusters">
      <data key="d0">Algorithm</data>
      <data key="d1">Rich::Rec::PixelClusterMoni</data>
    </node>
    <node id="GaudiSequencer/PackDST">
      <data key="d2">False</data>
      <data key="d3">True</data>
      <data key="d0">DecisionHub</data>
      <data key="d1">GaudiSequencer</data>
    </node>
    <node id="ANNGlobalPID::ChargedProtoANNPIDAlg/ANNGPIDUpstreamElectron">
      <data key="d0">Algorithm</data>
      <data key="d1">ANNGlobalPID::ChargedProtoANNPIDAlg</data>
    </node>
    <node id="GaudiSequencer/RichHPDIonFeedback">
      <data key="d2">False</data>
      <data key="d3">True</data>
      <data key="d0">DecisionHub</data>
      <data key="d1">GaudiSequencer</data>
    </node>
    <node id="Rich::Rec::Initialise/CreateOfflinePhotons">
      <data key="d0">Algorithm</data>
      <data key="d1">Rich::Rec::Initialise</data>
    </node>
    <node id="TrackMuonMatchMonitor/TrackMuonMatchMonitor">
      <data key="d0">Algorithm</data>
      <data key="d1">TrackMuonMatchMonitor</data>
    </node>
    <node id="Rich::Rec::MC::TrackSelEff/RiKsTrackTrkEff">
      <data key="d0">Algorithm</data>
      <data key="d1">Rich::Rec::MC::TrackSelEff</data>
    </node>
    <node id="Rich::Rec::MC::PIDQC/RiPIDMonLong2To10">
      <data key="d0">Algorithm</data>
      <data key="d1">Rich::Rec::MC::PIDQC</data>
    </node>
    <node id="Rich::Rec::TracklessRingSegmentAssociationAlg/OfflineENNRingsSegAssoc">
      <data key="d0">Algorithm</data>
      <data key="d1">Rich::Rec::TracklessRingSegmentAssociationAlg</data>
    </node>
    <node id="GaudiSequencer/RichOfflinePhotonsSeq">
      <data key="d2">False</data>
      <data key="d3">True</data>
      <data key="d0">DecisionHub</data>
      <data key="d1">GaudiSequencer</data>
    </node>
    <node id="TrackToDST/FilterBestTrackStates">
      <data key="d0">Algorithm</data>
      <data key="d1">TrackToDST</data>
    </node>
    <node id="RawBankReadoutStatusFilter/MuonROFilter">
      <data key="d0">Algorithm</data>
      <data key="d1">RawBankReadoutStatusFilter</data>
    </node>
    <node id="Rich::Rec::ENNRingFinder::Rich1GasBottomPanel/OfflineENNFinderR1GasBottom">
      <data key="d0">Algorithm</data>
      <data key="d1">Rich::Rec::ENNRingFinder::Rich1GasBottomPanel</data>
    </node>
    <node id="RawBankToSTLiteClusterAlg/createITLiteClusters">
      <data key="d0">Algorithm</data>
      <data key="d1">RawBankToSTLiteClusterAlg</data>
    </node>
    <node id="ANNGlobalPID::ChargedProtoANNPIDAlg/ANNGPIDDownstreamElectron">
      <data key="d0">Algorithm</data>
      <data key="d1">ANNGlobalPID::ChargedProtoANNPIDAlg</data>
    </node>
    <node id="Rich::Rec::MC::RecoQC/RiCKResMatchTight">
      <data key="d0">Algorithm</data>
      <data key="d1">Rich::Rec::MC::RecoQC</data>
    </node>
    <node id="Velo::VeloClusterMonitor/VeloClusterMonitor">
      <data key="d0">Algorithm</data>
      <data key="d1">Velo::VeloClusterMonitor</data>
    </node>
    <node id="PrsPIDeAlg/PrsPIDe">
      <data key="d0">Algorithm</data>
      <data key="d1">PrsPIDeAlg</data>
    </node>
    <node id="GaudiSequencer/RichRecInitOfflineSeq">
      <data key="d2">False</data>
      <data key="d3">True</data>
      <data key="d0">DecisionHub</data>
      <data key="d1">GaudiSequencer</data>
    </node>
    <node id="LoKi::HDRFilter/RichHlt1Filter">
      <data key="d0">Algorithm</data>
      <data key="d1">LoKi::HDRFilter</data>
    </node>
    <node id="RawBankReadoutStatusConverter/MuonProcStatus">
      <data key="d0">Algorithm</data>
      <data key="d1">RawBankReadoutStatusConverter</data>
    </node>
    <node id="GaudiSequencer/RichTrackMoni">
      <data key="d2">False</data>
      <data key="d3">True</data>
      <data key="d0">DecisionHub</data>
      <data key="d1">GaudiSequencer</data>
    </node>
    <node id="GaudiSequencer/LumiBeam1Seq">
      <data key="d2">False</data>
      <data key="d3">True</data>
      <data key="d0">DecisionHub</data>
      <data key="d1">GaudiSequencer</data>
    </node>
    <node id="PackTrack/PackTracks">
      <data key="d0">Algorithm</data>
      <data key="d1">PackTrack</data>
    </node>
    <node id="ElectronMatchAlg/ElectronMatch">
      <data key="d0">Algorithm</data>
      <data key="d1">ElectronMatchAlg</data>
    </node>
    <node id="Rich::Mon::HPDIonFeedbackMoni/RichHPDIFBMoni">
      <data key="d0">Algorithm</data>
      <data key="d1">Rich::Mon::HPDIonFeedbackMoni</data>
    </node>
    <node id="ANNGlobalPID::ChargedProtoANNPIDAlg/ANNGPIDUpstreamMuon">
      <data key="d0">Algorithm</data>
      <data key="d1">ANNGlobalPID::ChargedProtoANNPIDAlg</data>
    </node>
    <node id="CaloPhotonIdAlg/PhotonFromMergedID">
      <data key="d0">Algorithm</data>
      <data key="d1">CaloPhotonIdAlg</data>
    </node>
    <node id="Rich::Rec::MC::PIDQC/RiPIDMonLong10To70">
      <data key="d0">Algorithm</data>
      <data key="d1">Rich::Rec::MC::PIDQC</data>
    </node>
    <node id="CaloPhotonIdAlg/MergedID">
      <data key="d0">Algorithm</data>
      <data key="d1">CaloPhotonIdAlg</data>
    </node>
    <node id="GaudiSequencer/RecoRICHSeq">
      <data key="d2">False</data>
      <data key="d3">True</data>
      <data key="d0">DecisionHub</data>
      <data key="d1">GaudiSequencer</data>
    </node>
    <node id="TrackAddNNGhostId/TrackAddNNGhostId">
      <data key="d0">Algorithm</data>
      <data key="d1">TrackAddNNGhostId</data>
    </node>
    <node id="Rich::Rec::PixelBackgroundAlg/RichOfflineBckEstIt1">
      <data key="d0">Algorithm</data>
      <data key="d1">Rich::Rec::PixelBackgroundAlg</data>
    </node>
    <node id="Rich::Rec::PixelBackgroundAlg/RichOfflineBckEstIt0">
      <data key="d0">Algorithm</data>
      <data key="d1">Rich::Rec::PixelBackgroundAlg</data>
    </node>
    <node id="FilterFillingScheme/FillingBeam1">
      <data key="d0">Algorithm</data>
      <data key="d1">FilterFillingScheme</data>
    </node>
    <node id="FilterFillingScheme/FillingBeam2">
      <data key="d0">Algorithm</data>
      <data key="d1">FilterFillingScheme</data>
    </node>
    <node id="MuMonitor/MuMonitor">
      <data key="d0">Algorithm</data>
      <data key="d1">MuMonitor</data>
    </node>
    <node id="CaloPi0Monitor/EtaMon">
      <data key="d0">Algorithm</data>
      <data key="d1">CaloPi0Monitor</data>
    </node>
    <node id="CaloPi0Monitor/ResolvedPi0Mon">
      <data key="d0">Algorithm</data>
      <data key="d1">CaloPi0Monitor</data>
    </node>
    <node id="RecInit/BrunelInit">
      <data key="d0">Algorithm</data>
      <data key="d1">RecInit</data>
    </node>
    <node id="OTTimeMonitor/OTTimeMonitor">
      <data key="d0">Algorithm</data>
      <data key="d1">OTTimeMonitor</data>
    </node>
    <node id="CaloDigitMonitor/EcalDigitMon">
      <data key="d0">Algorithm</data>
      <data key="d1">CaloDigitMonitor</data>
    </node>
    <node id="Rich::Rec::MC::TrackSelEff/RiMatchTrkEff">
      <data key="d0">Algorithm</data>
      <data key="d1">Rich::Rec::MC::TrackSelEff</data>
    </node>
    <node id="HltRoutingBitsFilter/PhysFilter">
      <data key="d0">Algorithm</data>
      <data key="d1">HltRoutingBitsFilter</data>
    </node>
    <node id="ANNGlobalPID::ChargedProtoANNPIDAlg/ANNGPIDLongMuon">
      <data key="d0">Algorithm</data>
      <data key="d1">ANNGlobalPID::ChargedProtoANNPIDAlg</data>
    </node>
    <node id="GaudiSequencer/RichOfflineENNRingFinderSeq">
      <data key="d2">False</data>
      <data key="d3">True</data>
      <data key="d0">DecisionHub</data>
      <data key="d1">GaudiSequencer</data>
    </node>
    <node id="Rich::Rec::GlobalPID::Likelihood/RichOfflineGPIDLLIt0">
      <data key="d0">Algorithm</data>
      <data key="d1">Rich::Rec::GlobalPID::Likelihood</data>
    </node>
    <node id="Rich::Rec::GlobalPID::Likelihood/RichOfflineGPIDLLIt1">
      <data key="d0">Algorithm</data>
      <data key="d1">Rich::Rec::GlobalPID::Likelihood</data>
    </node>
    <node id="CaloClusterMatchMonitor/PhotonMatchMon">
      <data key="d0">Algorithm</data>
      <data key="d1">CaloClusterMatchMonitor</data>
    </node>
    <node id="AddToProcStatus/HltErrorProc">
      <data key="d0">Algorithm</data>
      <data key="d1">AddToProcStatus</data>
    </node>
    <node id="CaloDigitMonitor/HcalDigitMon">
      <data key="d0">Algorithm</data>
      <data key="d1">CaloDigitMonitor</data>
    </node>
    <node id="InEcalAcceptanceAlg/InECAL">
      <data key="d0">Algorithm</data>
      <data key="d1">InEcalAcceptanceAlg</data>
    </node>
    <node id="GaudiSequencer/HcalDigitsSeq">
      <data key="d2">False</data>
      <data key="d3">True</data>
      <data key="d0">DecisionHub</data>
      <data key="d1">GaudiSequencer</data>
    </node>
    <node id="ANNGlobalPID::ChargedProtoANNPIDAlg/ANNGPIDDownstreamPion">
      <data key="d0">Algorithm</data>
      <data key="d1">ANNGlobalPID::ChargedProtoANNPIDAlg</data>
    </node>
    <node id="LoKi::HDRFilter/HltErrorFilter">
      <data key="d0">Algorithm</data>
      <data key="d1">LoKi::HDRFilter</data>
    </node>
    <node id="GaudiSequencer/CaloPIDsMoni">
      <data key="d2">False</data>
      <data key="d3">True</data>
      <data key="d0">DecisionHub</data>
      <data key="d1">GaudiSequencer</data>
    </node>
    <node id="Rich::Rec::GlobalPID::Finalize/RichOfflineGPIDFin">
      <data key="d0">Algorithm</data>
      <data key="d1">Rich::Rec::GlobalPID::Finalize</data>
    </node>
    <node id="PackCaloHypo/PackSplitPhotons">
      <data key="d0">Algorithm</data>
      <data key="d1">PackCaloHypo</data>
    </node>
    <node id="EcalChi22ID/EcalChi22ID">
      <data key="d0">Algorithm</data>
      <data key="d1">EcalChi22ID</data>
    </node>
    <node id="GaudiSequencer/InitBrunelSeq">
      <data key="d2">False</data>
      <data key="d3">True</data>
      <data key="d0">DecisionHub</data>
      <data key="d1">GaudiSequencer</data>
    </node>
    <node id="ANNGlobalPID::ChargedProtoANNPIDMoni/ChargedProtoANNPIDMoni">
      <data key="d0">Algorithm</data>
      <data key="d1">ANNGlobalPID::ChargedProtoANNPIDMoni</data>
    </node>
    <node id="GaudiSequencer/DiPhotonMoni">
      <data key="d2">False</data>
      <data key="d3">True</data>
      <data key="d0">DecisionHub</data>
      <data key="d1">GaudiSequencer</data>
    </node>
    <node id="Rich::Rec::Initialise/CreateOfflineTracks">
      <data key="d0">Algorithm</data>
      <data key="d1">Rich::Rec::Initialise</data>
    </node>
    <node id="GaudiSequencer/RecoVertexSeq">
      <data key="d2">False</data>
      <data key="d3">True</data>
      <data key="d0">DecisionHub</data>
      <data key="d1">GaudiSequencer</data>
    </node>
    <node id="RawBankReadoutStatusConverter/EcalProcStatus">
      <data key="d0">Algorithm</data>
      <data key="d1">RawBankReadoutStatusConverter</data>
    </node>
    <node id="PackProtoParticle/PackNeutralProtos">
      <data key="d0">Algorithm</data>
      <data key="d1">PackProtoParticle</data>
    </node>
    <node id="LoKi::ODINFilter/FilterNoBeam">
      <data key="d0">Algorithm</data>
      <data key="d1">LoKi::ODINFilter</data>
    </node>
    <node id="TrackCaloMatchMonitor/TrackSpdMatchMonitor">
      <data key="d0">Algorithm</data>
      <data key="d1">TrackCaloMatchMonitor</data>
    </node>
    <node id="FilterOnLumiSummary/LumiFilterNoBeam">
      <data key="d0">Algorithm</data>
      <data key="d1">FilterOnLumiSummary</data>
    </node>
    <node id="ChargedProtoCombineDLLsAlg/ChargedProtoPCombDLLs">
      <data key="d0">Algorithm</data>
      <data key="d1">ChargedProtoCombineDLLsAlg</data>
    </node>
    <node id="GaudiSequencer/LumiNoBeamSeq">
      <data key="d2">False</data>
      <data key="d3">True</data>
      <data key="d0">DecisionHub</data>
      <data key="d1">GaudiSequencer</data>
    </node>
    <node id="GaudiSequencer/TrackMatchPatSeq">
      <data key="d2">False</data>
      <data key="d3">True</data>
      <data key="d0">DecisionHub</data>
      <data key="d1">GaudiSequencer</data>
    </node>
    <node id="GaudiSequencer/RichOfflineGPIDSeq">
      <data key="d2">False</data>
      <data key="d3">True</data>
      <data key="d0">DecisionHub</data>
      <data key="d1">GaudiSequencer</data>
    </node>
    <node id="ProcessPhase/Track">
      <data key="d2">False</data>
      <data key="d3">True</data>
      <data key="d0">DecisionHub</data>
      <data key="d1">ProcessPhase</data>
    </node>
    <node id="PhotonMatchAlg/ClusterMatch">
      <data key="d0">Algorithm</data>
      <data key="d1">PhotonMatchAlg</data>
    </node>
    <node id="GaudiSequencer/CaloDigits">
      <data key="d2">False</data>
      <data key="d3">True</data>
      <data key="d0">DecisionHub</data>
      <data key="d1">GaudiSequencer</data>
    </node>
    <node id="RawEventMapCombiner/create_Calo_RawEvent">
      <data key="d0">Algorithm</data>
      <data key="d1">RawEventMapCombiner</data>
    </node>
    <node id="Rich::Rec::ENNRingFinder::Rich2GasRightPanel/OfflineENNFinderR2GasRight">
      <data key="d0">Algorithm</data>
      <data key="d1">Rich::Rec::ENNRingFinder::Rich2GasRightPanel</data>
    </node>
    <node id="CaloDigitsFromRaw/SpdFromRaw">
      <data key="d0">Algorithm</data>
      <data key="d1">CaloDigitsFromRaw</data>
    </node>
    <node id="GaudiSequencer/TrackEraseExtraInformationSeq">
      <data key="d2">False</data>
      <data key="d3">True</data>
      <data key="d0">DecisionHub</data>
      <data key="d1">GaudiSequencer</data>
    </node>
    <node id="Rich::Rec::ENNRingFinder::Rich2GasLeftPanel/OfflineENNFinderR2GasLeft">
      <data key="d0">Algorithm</data>
      <data key="d1">Rich::Rec::ENNRingFinder::Rich2GasLeftPanel</data>
    </node>
    <node id="GaudiSequencer/LumiBeamCrossingSeq">
      <data key="d2">False</data>
      <data key="d3">True</data>
      <data key="d0">DecisionHub</data>
      <data key="d1">GaudiSequencer</data>
    </node>
    <node id="CaloClusterCovarianceAlg/EcalCovar">
      <data key="d0">Algorithm</data>
      <data key="d1">CaloClusterCovarianceAlg</data>
    </node>
    <node id="Rich::Rec::GlobalPID::TrackSel/RichOfflineGPIDTrSel">
      <data key="d0">Algorithm</data>
      <data key="d1">Rich::Rec::GlobalPID::TrackSel</data>
    </node>
    <node id="GaudiSequencer/DecodeTriggerSeq">
      <data key="d2">False</data>
      <data key="d3">True</data>
      <data key="d0">DecisionHub</data>
      <data key="d1">GaudiSequencer</data>
    </node>
    <node id="Rich::DAQ::RawBufferToRichDigitsAlg/DecodeRawRichOffline">
      <data key="d0">Algorithm</data>
      <data key="d1">Rich::DAQ::RawBufferToRichDigitsAlg</data>
    </node>
    <node id="ANNGlobalPID::ChargedProtoANNPIDAlg/ANNGPIDDownstreamMuon">
      <data key="d0">Algorithm</data>
      <data key="d1">ANNGlobalPID::ChargedProtoANNPIDAlg</data>
    </node>
    <node id="ProcStatAbortMoni/ProcStatAbortMoni">
      <data key="d0">Algorithm</data>
      <data key="d1">ProcStatAbortMoni</data>
    </node>
    <node id="CellularAutomatonAlg/EcalClust">
      <data key="d0">Algorithm</data>
      <data key="d1">CellularAutomatonAlg</data>
    </node>
    <node id="LumiAccounting/LumiCountBeam1">
      <data key="d0">Algorithm</data>
      <data key="d1">LumiAccounting</data>
    </node>
    <node id="TrackDiMuonMonitor/TrackDiMuonMonitor">
      <data key="d0">Algorithm</data>
      <data key="d1">TrackDiMuonMonitor</data>
    </node>
    <node id="LumiAccounting/LumiCountBeam2">
      <data key="d0">Algorithm</data>
      <data key="d1">LumiAccounting</data>
    </node>
    <node id="CaloDigitsFromRaw/PrsFromRaw">
      <data key="d0">Algorithm</data>
      <data key="d1">CaloDigitsFromRaw</data>
    </node>
    <node id="GaudiSequencer/ClusterReco">
      <data key="d2">False</data>
      <data key="d3">True</data>
      <data key="d0">DecisionHub</data>
      <data key="d1">GaudiSequencer</data>
    </node>
    <node id="GaudiSequencer/TrackFitSeq">
      <data key="d2">False</data>
      <data key="d3">True</data>
      <data key="d0">DecisionHub</data>
      <data key="d1">GaudiSequencer</data>
    </node>
    <node id="Rich::Rec::MC::RecoQC/RiCKResLongTight">
      <data key="d0">Algorithm</data>
      <data key="d1">Rich::Rec::MC::RecoQC</data>
    </node>
    <node id="GaudiSequencer/RichOfflinePixelsSeq">
      <data key="d2">False</data>
      <data key="d3">True</data>
      <data key="d0">DecisionHub</data>
      <data key="d1">GaudiSequencer</data>
    </node>
    <node id="Rich::DAQ::RawDataSize/RichRawDataSizeL0">
      <data key="d0">Algorithm</data>
      <data key="d1">Rich::DAQ::RawDataSize</data>
    </node>
    <node id="PatForward/PatForward">
      <data key="d0">Algorithm</data>
      <data key="d1">PatForward</data>
    </node>
    <node id="GaudiSequencer/ChargedPIDsCaloPIDsForCaloProcessor">
      <data key="d2">False</data>
      <data key="d3">True</data>
      <data key="d0">DecisionHub</data>
      <data key="d1">GaudiSequencer</data>
    </node>
    <node id="HltLumiSummaryDecoder/LumiDecodeBeam2">
      <data key="d0">Algorithm</data>
      <data key="d1">HltLumiSummaryDecoder</data>
    </node>
    <node id="HltLumiSummaryDecoder/LumiDecodeBeam1">
      <data key="d0">Algorithm</data>
      <data key="d1">HltLumiSummaryDecoder</data>
    </node>
    <node id="ANNGlobalPID::ChargedProtoANNPIDAlg/ANNGPIDUpstreamKaon">
      <data key="d0">Algorithm</data>
      <data key="d1">ANNGlobalPID::ChargedProtoANNPIDAlg</data>
    </node>
    <node id="Rich::Rec::GlobalPID::Initialize/RichOfflineGPIDInit">
      <data key="d0">Algorithm</data>
      <data key="d1">Rich::Rec::GlobalPID::Initialize</data>
    </node>
    <node id="Rich::Rec::MC::PIDQC/RiPIDMonLong2To100">
      <data key="d0">Algorithm</data>
      <data key="d1">Rich::Rec::MC::PIDQC</data>
    </node>
    <node id="GaudiSequencer/MoniVELOSeq">
      <data key="d2">False</data>
      <data key="d3">True</data>
      <data key="d0">DecisionHub</data>
      <data key="d1">GaudiSequencer</data>
    </node>
    <node id="MuonIDAlg/MuonIDAlg">
      <data key="d0">Algorithm</data>
      <data key="d1">MuonIDAlg</data>
    </node>
    <node id="ProcessPhase/Moni">
      <data key="d2">False</data>
      <data key="d3">True</data>
      <data key="d0">DecisionHub</data>
      <data key="d1">ProcessPhase</data>
    </node>
    <node id="LumiAccounting/LumiCountBeamCrossing">
      <data key="d0">Algorithm</data>
      <data key="d1">LumiAccounting</data>
    </node>
    <node id="TrackBestTrackCreator/TrackBestTrackCreator">
      <data key="d0">Algorithm</data>
      <data key="d1">TrackBestTrackCreator</data>
    </node>
    <node id="GaudiSequencer/CaloDigitsMoni">
      <data key="d2">False</data>
      <data key="d3">True</data>
      <data key="d0">DecisionHub</data>
      <data key="d1">GaudiSequencer</data>
    </node>
    <node id="FilterOnLumiSummary/LumiFilterBeam1">
      <data key="d0">Algorithm</data>
      <data key="d1">FilterOnLumiSummary</data>
    </node>
    <node id="FilterOnLumiSummary/LumiFilterBeam2">
      <data key="d0">Algorithm</data>
      <data key="d1">FilterOnLumiSummary</data>
    </node>
    <node id="GaudiSequencer/RichPixelMoni">
      <data key="d2">False</data>
      <data key="d3">True</data>
      <data key="d0">DecisionHub</data>
      <data key="d1">GaudiSequencer</data>
    </node>
    <node id="GaudiSequencer/CaloDLLe">
      <data key="d2">False</data>
      <data key="d3">True</data>
      <data key="d0">DecisionHub</data>
      <data key="d1">GaudiSequencer</data>
    </node>
    <node id="TrackEventFitter/MuonTrackFitter">
      <data key="d0">Algorithm</data>
      <data key="d1">TrackEventFitter</data>
    </node>
    <node id="AlignmentOnlineMonitor/AlignmentOnlineMonitor">
      <data key="d0">Algorithm</data>
      <data key="d1">AlignmentOnlineMonitor</data>
    </node>
    <node id="PackTwoProngVertex/PackTwoProngVertex">
      <data key="d0">Algorithm</data>
      <data key="d1">PackTwoProngVertex</data>
    </node>
    <node id="PackCaloHypo/PackElectrons">
      <data key="d0">Algorithm</data>
      <data key="d1">PackCaloHypo</data>
    </node>
    <node id="ChargedProtoParticleAddBremInfo/ChargedProtoPAddBrem">
      <data key="d0">Algorithm</data>
      <data key="d1">ChargedProtoParticleAddBremInfo</data>
    </node>
    <node id="GaudiSequencer/MoniHltSeq">
      <data key="d2">False</data>
      <data key="d3">True</data>
      <data key="d0">DecisionHub</data>
      <data key="d1">GaudiSequencer</data>
    </node>
    <node id="CaloHypoMonitor/MergedPi0Mon">
      <data key="d0">Algorithm</data>
      <data key="d1">CaloHypoMonitor</data>
    </node>
    <node id="GaudiSequencer/ANNGPIDSeq">
      <data key="d2">False</data>
      <data key="d3">True</data>
      <data key="d0">DecisionHub</data>
      <data key="d1">GaudiSequencer</data>
    </node>
    <node id="ANNGlobalPID::ChargedProtoANNPIDAlg/ANNGPIDDownstreamKaon">
      <data key="d0">Algorithm</data>
      <data key="d1">ANNGlobalPID::ChargedProtoANNPIDAlg</data>
    </node>
    <node id="TrackAddLikelihood/TrackAddLikelihood">
      <data key="d0">Algorithm</data>
      <data key="d1">TrackAddLikelihood</data>
    </node>
    <node id="CaloDigitMonitor/SpdDigitMon">
      <data key="d0">Algorithm</data>
      <data key="d1">CaloDigitMonitor</data>
    </node>
    <node id="CaloClusterMonitor/EcalClusterMon">
      <data key="d0">Algorithm</data>
      <data key="d1">CaloClusterMonitor</data>
    </node>
    <node id="CaloZSupAlg/EcalZSup">
      <data key="d0">Algorithm</data>
      <data key="d1">CaloZSupAlg</data>
    </node>
    <node id="TimeAccounting/TimeSpanAccounting">
      <data key="d0">Algorithm</data>
      <data key="d1">TimeAccounting</data>
    </node>
    <node id="TrackITOverlapMonitor/TrackITOverlapMonitor">
      <data key="d0">Algorithm</data>
      <data key="d1">TrackITOverlapMonitor</data>
    </node>
    <node id="ChargedProtoParticleRemovePIDInfo/ProtoParticlePIDClean">
      <data key="d0">Algorithm</data>
      <data key="d1">ChargedProtoParticleRemovePIDInfo</data>
    </node>
    <node id="GaudiSequencer/RichRawMoni">
      <data key="d2">False</data>
      <data key="d3">True</data>
      <data key="d0">DecisionHub</data>
      <data key="d1">GaudiSequencer</data>
    </node>
    <node id="RawBankToSTClusterAlg/createITClusters">
      <data key="d0">Algorithm</data>
      <data key="d1">RawBankToSTClusterAlg</data>
    </node>
    <node id="ANNGlobalPID::ChargedProtoANNPIDAlg/ANNGPIDUpstreamProton">
      <data key="d0">Algorithm</data>
      <data key="d1">ANNGlobalPID::ChargedProtoANNPIDAlg</data>
    </node>
    <node id="GaudiSequencer/MoniGENERALSeq">
      <data key="d2">False</data>
      <data key="d3">True</data>
      <data key="d0">DecisionHub</data>
      <data key="d1">GaudiSequencer</data>
    </node>
    <node id="HltCompositionMonitor/HltCompositionMonitor">
      <data key="d0">Algorithm</data>
      <data key="d1">HltCompositionMonitor</data>
    </node>
    <node id="GaudiSequencer/CaloMatch">
      <data key="d2">False</data>
      <data key="d3">True</data>
      <data key="d0">DecisionHub</data>
      <data key="d1">GaudiSequencer</data>
    </node>
    <node id="GaudiSequencer/BrunelSequencer">
      <data key="d2">False</data>
      <data key="d3">True</data>
      <data key="d0">DecisionHub</data>
      <data key="d1">GaudiSequencer</data>
    </node>
    <node id="CaloEMuPIDMon/CaloEMuPIDMonSoft">
      <data key="d0">Algorithm</data>
      <data key="d1">CaloEMuPIDMon</data>
    </node>
    <node id="GaudiSequencer/MergedPi0Reco">
      <data key="d2">False</data>
      <data key="d3">True</data>
      <data key="d0">DecisionHub</data>
      <data key="d1">GaudiSequencer</data>
    </node>
    <node id="GaudiSequencer/RichRecoMoniTight">
      <data key="d2">False</data>
      <data key="d3">True</data>
      <data key="d0">DecisionHub</data>
      <data key="d1">GaudiSequencer</data>
    </node>
    <node id="PackCaloHypo/PackPhotons">
      <data key="d0">Algorithm</data>
      <data key="d1">PackCaloHypo</data>
    </node>
    <node id="GaudiSequencer/MoniOTSeq">
      <data key="d2">False</data>
      <data key="d3">True</data>
      <data key="d0">DecisionHub</data>
      <data key="d1">GaudiSequencer</data>
    </node>
    <node id="PatPVOffline/PatPVOffline">
      <data key="d0">Algorithm</data>
      <data key="d1">PatPVOffline</data>
    </node>
    <node id="ANNGlobalPID::ChargedProtoANNPIDAlg/ANNGPIDLongGhost">
      <data key="d0">Algorithm</data>
      <data key="d1">ANNGlobalPID::ChargedProtoANNPIDAlg</data>
    </node>
    <node id="Track2HcalEAlg/HcalE">
      <data key="d0">Algorithm</data>
      <data key="d1">Track2HcalEAlg</data>
    </node>
    <node id="Rich::Rec::MC::RecoQC/RiCKResKsTrackTight">
      <data key="d0">Algorithm</data>
      <data key="d1">Rich::Rec::MC::RecoQC</data>
    </node>
    <node id="FastVeloTracking/FastVeloTracking">
      <data key="d0">Algorithm</data>
      <data key="d1">FastVeloTracking</data>
    </node>
    <node id="TrackCloneCleaner/FlagTrackClones">
      <data key="d0">Algorithm</data>
      <data key="d1">TrackCloneCleaner</data>
    </node>
    <node id="ProcessPhase/Reco">
      <data key="d2">False</data>
      <data key="d3">True</data>
      <data key="d0">DecisionHub</data>
      <data key="d1">ProcessPhase</data>
    </node>
    <node id="ANNGlobalPID::ChargedProtoANNPIDAlg/ANNGPIDLongElectron">
      <data key="d0">Algorithm</data>
      <data key="d1">ANNGlobalPID::ChargedProtoANNPIDAlg</data>
    </node>
    <node id="CaloHypoMatchMonitor/ElectronMatchMon">
      <data key="d0">Algorithm</data>
      <data key="d1">CaloHypoMatchMonitor</data>
    </node>
    <node id="TrackVeloOverlapMonitor/TrackVeloOverlapMonitor">
      <data key="d0">Algorithm</data>
      <data key="d1">TrackVeloOverlapMonitor</data>
    </node>
    <node id="GaudiSequencer/HltErrorSeq">
      <data key="d2">True</data>
      <data key="d3">True</data>
      <data key="d0">DecisionHub</data>
      <data key="d1">GaudiSequencer</data>
    </node>
    <node id="TrackAlignMonitor/TrackAlignMonitor">
      <data key="d0">Algorithm</data>
      <data key="d1">TrackAlignMonitor</data>
    </node>
    <node id="GaudiSequencer/RecoTrSeq">
      <data key="d2">False</data>
      <data key="d3">True</data>
      <data key="d0">DecisionHub</data>
      <data key="d1">GaudiSequencer</data>
    </node>
    <node id="Rich::DAQ::RawDataSize/RichRawDataSize">
      <data key="d0">Algorithm</data>
      <data key="d1">Rich::DAQ::RawDataSize</data>
    </node>
    <node id="Rich::Rec::ENNRingFinder::Rich1GasTopPanel/OfflineENNFinderR1GasTop">
      <data key="d0">Algorithm</data>
      <data key="d1">Rich::Rec::ENNRingFinder::Rich1GasTopPanel</data>
    </node>
    <node id="TTTrackMonitor/TTTrackMonitor">
      <data key="d0">Algorithm</data>
      <data key="d1">TTTrackMonitor</data>
    </node>
    <node id="EventAccounting/EventAccount">
      <data key="d0">Algorithm</data>
      <data key="d1">EventAccounting</data>
    </node>
    <node id="GaudiSequencer/LumiBeam2Seq">
      <data key="d2">False</data>
      <data key="d3">True</data>
      <data key="d0">DecisionHub</data>
      <data key="d1">GaudiSequencer</data>
    </node>
    <node id="RawBankReadoutStatusConverter/HcalProcStatus">
      <data key="d0">Algorithm</data>
      <data key="d1">RawBankReadoutStatusConverter</data>
    </node>
    <node id="GaudiSequencer/ElectronReco">
      <data key="d2">False</data>
      <data key="d3">True</data>
      <data key="d0">DecisionHub</data>
      <data key="d1">GaudiSequencer</data>
    </node>
    <node id="GaudiSequencer/CaloRecoForCaloProcessor">
      <data key="d2">False</data>
      <data key="d3">True</data>
      <data key="d0">DecisionHub</data>
      <data key="d1">GaudiSequencer</data>
    </node>
    <node id="Rich::Rec::Initialise/CheckProcOfflineStatus">
      <data key="d0">Algorithm</data>
      <data key="d1">Rich::Rec::Initialise</data>
    </node>
    <node id="GaudiSequencer/CaloHyposMoni">
      <data key="d2">False</data>
      <data key="d3">True</data>
      <data key="d0">DecisionHub</data>
      <data key="d1">GaudiSequencer</data>
    </node>
    <node id="Rich::Rec::MC::PIDQC/RiPIDMonLong70To100">
      <data key="d0">Algorithm</data>
      <data key="d1">Rich::Rec::MC::PIDQC</data>
    </node>
    <node id="GaudiSequencer/L0TriggerSeq">
      <data key="d2">False</data>
      <data key="d3">True</data>
      <data key="d0">DecisionHub</data>
      <data key="d1">GaudiSequencer</data>
    </node>
    <node id="GaudiSequencer/CaloEnergy">
      <data key="d2">False</data>
      <data key="d3">True</data>
      <data key="d0">DecisionHub</data>
      <data key="d1">GaudiSequencer</data>
    </node>
    <node id="GaudiSequencer/MuonIDSeq">
      <data key="d2">False</data>
      <data key="d3">True</data>
      <data key="d0">DecisionHub</data>
      <data key="d1">GaudiSequencer</data>
    </node>
    <node id="RawBankReadoutStatusConverter/PrsProcStatus">
      <data key="d0">Algorithm</data>
      <data key="d1">RawBankReadoutStatusConverter</data>
    </node>
    <node id="Rich::Rec::MC::AlignmentMonitor/RichAlignMoniR1Gas">
      <data key="d0">Algorithm</data>
      <data key="d1">Rich::Rec::MC::AlignmentMonitor</data>
    </node>
    <node id="ITTrackMonitor/ITTrackMonitor">
      <data key="d0">Algorithm</data>
      <data key="d1">ITTrackMonitor</data>
    </node>
    <node id="Rich::Rec::MC::RecoQC/RiCKResVeloTTTight">
      <data key="d0">Algorithm</data>
      <data key="d1">Rich::Rec::MC::RecoQC</data>
    </node>
    <node id="HltRoutingBitsFilter/LumiFilter">
      <data key="d0">Algorithm</data>
      <data key="d1">HltRoutingBitsFilter</data>
    </node>
    <node id="HltLumiSummaryDecoder/LumiDecodeNoBeam">
      <data key="d0">Algorithm</data>
      <data key="d1">HltLumiSummaryDecoder</data>
    </node>
    <node id="GaudiSequencer/EcalDigitsSeq">
      <data key="d2">False</data>
      <data key="d3">True</data>
      <data key="d0">DecisionHub</data>
      <data key="d1">GaudiSequencer</data>
    </node>
    <node id="Rich::HPDAnalysisAlg/RichHotPixels">
      <data key="d0">Algorithm</data>
      <data key="d1">Rich::HPDAnalysisAlg</data>
    </node>
    <node id="InBremAcceptanceAlg/InBREM">
      <data key="d0">Algorithm</data>
      <data key="d1">InBremAcceptanceAlg</data>
    </node>
    <node id="InHcalAcceptanceAlg/InHCAL">
      <data key="d0">Algorithm</data>
      <data key="d1">InHcalAcceptanceAlg</data>
    </node>
    <node id="HltDecReportsDecoder/HltDecReportsDecoder">
      <data key="d0">Algorithm</data>
      <data key="d1">HltDecReportsDecoder</data>
    </node>
    <node id="Rich::Rec::MC::RecoQC/RiCKResLong">
      <data key="d0">Algorithm</data>
      <data key="d1">Rich::Rec::MC::RecoQC</data>
    </node>
    <node id="RecProcessingTimeMoni/CaloEventProcTime">
      <data key="d0">Algorithm</data>
      <data key="d1">RecProcessingTimeMoni</data>
    </node>
    <node id="CaloDigitFilterAlg/CaloDigitFilter">
      <data key="d0">Algorithm</data>
      <data key="d1">CaloDigitFilterAlg</data>
    </node>
    <node id="Rich::Rec::MC::PixelQC/RichRecPixelQC">
      <data key="d0">Algorithm</data>
      <data key="d1">Rich::Rec::MC::PixelQC</data>
    </node>
    <node id="GaudiSequencer/RawEventSplitSeq">
      <data key="d2">False</data>
      <data key="d3">True</data>
      <data key="d0">DecisionHub</data>
      <data key="d1">GaudiSequencer</data>
    </node>
    <node id="TrackVertexMonitor/TrackVertexMonitor">
      <data key="d0">Algorithm</data>
      <data key="d1">TrackVertexMonitor</data>
    </node>
    <node id="ClusChi22ID/ClusChi22ID">
      <data key="d0">Algorithm</data>
      <data key="d1">ClusChi22ID</data>
    </node>
    <node id="TrackFitMatchMonitor/TrackFitMatchMonitor">
      <data key="d0">Algorithm</data>
      <data key="d1">TrackFitMatchMonitor</data>
    </node>
    <node id="CaloDigitMonitor/PrsDigitMon">
      <data key="d0">Algorithm</data>
      <data key="d1">CaloDigitMonitor</data>
    </node>
    <node id="TrackBuildCloneTable/FindTrackClones">
      <data key="d0">Algorithm</data>
      <data key="d1">TrackBuildCloneTable</data>
    </node>
    <node id="GaudiSequencer/MoniSTSeq">
      <data key="d2">False</data>
      <data key="d3">True</data>
      <data key="d0">DecisionHub</data>
      <data key="d1">GaudiSequencer</data>
    </node>
    <node id="GaudiSequencer/NotPhysicsSeq">
      <data key="d2">True</data>
      <data key="d3">True</data>
      <data key="d0">DecisionHub</data>
      <data key="d1">GaudiSequencer</data>
    </node>
    <node id="RecProcessingTimeMoni/VertexEventProcTime">
      <data key="d0">Algorithm</data>
      <data key="d1">RecProcessingTimeMoni</data>
    </node>
    <node id="GaudiSequencer/CaloPacking">
      <data key="d2">False</data>
      <data key="d3">True</data>
      <data key="d0">DecisionHub</data>
      <data key="d1">GaudiSequencer</data>
    </node>
    <node id="RecProcessingTimeMoni/RichEventProcTime">
      <data key="d0">Algorithm</data>
      <data key="d1">RecProcessingTimeMoni</data>
    </node>
    <node id="GaudiSequencer/RecoITSeq">
      <data key="d0">DecisionHub</data>
      <data key="d1">GaudiSequencer</data>
    </node>
    <node id="Velo::VeloTrackMonitor/VeloTrackMonitor">
      <data key="d0">Algorithm</data>
      <data key="d1">Velo::VeloTrackMonitor</data>
    </node>
    <node id="CaloHypoMatchMonitor/BremMatchMon">
      <data key="d0">Algorithm</data>
      <data key="d1">CaloHypoMatchMonitor</data>
    </node>
    <node id="MuonPIDChecker/MuonPIDMonitorLong">
      <data key="d0">Algorithm</data>
      <data key="d1">MuonPIDChecker</data>
    </node>
    <node id="NeutralProtoPAlg/NeutralProtoPMaker">
      <data key="d0">Algorithm</data>
      <data key="d1">NeutralProtoPAlg</data>
    </node>
    <node id="LoKi::L0Filter/RichL0Filter">
      <data key="d0">Algorithm</data>
      <data key="d1">LoKi::L0Filter</data>
    </node>
    <node id="GaudiSequencer/RichENNTracklessRingsMoni">
      <data key="d2">False</data>
      <data key="d3">True</data>
      <data key="d0">DecisionHub</data>
      <data key="d1">GaudiSequencer</data>
    </node>
    <node id="TrackToDST/FilterMuonTrackStates">
      <data key="d0">Algorithm</data>
      <data key="d1">TrackToDST</data>
    </node>
    <node id="CaloMergedPi0Alg/MergedPi0Rec">
      <data key="d0">Algorithm</data>
      <data key="d1">CaloMergedPi0Alg</data>
    </node>
    <edge source="GaudiSequencer/CaloProcessorCaloSeq" target="GaudiSequencer/CaloRecoForCaloProcessor" />
    <edge source="GaudiSequencer/CaloProcessorCaloSeq" target="GaudiSequencer/CaloPIDsCaloPIDsForCaloProcessor" />
    <edge source="GaudiSequencer/CaloDLLmu" target="EcalPIDmuAlg/EcalPIDmu" />
    <edge source="GaudiSequencer/CaloDLLmu" target="HcalPIDmuAlg/HcalPIDmu" />
    <edge source="GaudiSequencer/RecoDecodingSeq" target="RawBankToSTLiteClusterAlg/createTTLiteClusters" />
    <edge source="GaudiSequencer/RecoDecodingSeq" target="DecodeVeloRawBuffer/createBothVeloClusters" />
    <edge source="GaudiSequencer/RecoDecodingSeq" target="RawBankToSTClusterAlg/createITClusters" />
    <edge source="GaudiSequencer/RecoDecodingSeq" target="RawBankToSTClusterAlg/createTTClusters" />
    <edge source="GaudiSequencer/RecoDecodingSeq" target="RawBankToSTLiteClusterAlg/createITLiteClusters" />
    <edge source="GaudiSequencer/CaloChi2" target="EcalChi22ID/EcalChi22ID" />
    <edge source="GaudiSequencer/CaloChi2" target="ClusChi22ID/ClusChi22ID" />
    <edge source="GaudiSequencer/CaloChi2" target="BremChi22ID/BremChi22ID" />
    <edge source="GaudiSequencer/RichOfflineTracksSeq" target="Rich::Rec::Initialise/CreateOfflineTracks" />
    <edge source="GaudiSequencer/LumiSeq" target="HltRoutingBitsFilter/PhysFilter" />
    <edge source="GaudiSequencer/LumiSeq" target="GaudiSequencer/LumiCounters" />
    <edge source="GaudiSequencer/LumiSeq" target="HltRoutingBitsFilter/LumiFilter" />
    <edge source="GaudiSequencer/TrackForwardPatSeq" target="PatForward/PatForward" />
    <edge source="GaudiSequencer/RichOfflinePIDSeq" target="Rich::Rec::HierarchicalPIDMerge/MergeOfflineRichPIDs" />
    <edge source="GaudiSequencer/RichOfflinePIDSeq" target="GaudiSequencer/RichOfflineGPIDSeq" />
    <edge source="GaudiSequencer/NeutralProtoParticles" target="NeutralProtoPAlg/NeutralProtoPMaker" />
    <edge source="GaudiSequencer/RichMirrAlignMoni" target="Rich::Rec::MC::AlignmentMonitor/RichAlignMoniR2Gas" />
    <edge source="GaudiSequencer/RichMirrAlignMoni" target="Rich::Rec::MC::AlignmentMonitor/RichAlignMoniR1Gas" />
    <edge source="GaudiSequencer/PhysicsSeq" target="ProcessPhase/Moni" />
    <edge source="GaudiSequencer/PhysicsSeq" target="GaudiSequencer/CaloBanksHandler" />
    <edge source="GaudiSequencer/PhysicsSeq" target="GaudiSequencer/DecodeTriggerSeq" />
    <edge source="GaudiSequencer/PhysicsSeq" target="ProcessPhase/Reco" />
    <edge source="GaudiSequencer/PhysicsSeq" target="HltRoutingBitsFilter/PhysFilter" />
    <edge source="GaudiSequencer/PhysicsSeq" target="GaudiSequencer/HltFilterSeq" />
    <edge source="GaudiSequencer/OutputDSTSeq" target="TrackToDST/FilterMuonTrackStates" />
    <edge source="GaudiSequencer/OutputDSTSeq" target="GaudiSequencer/PackDST" />
    <edge source="GaudiSequencer/OutputDSTSeq" target="TrackToDST/FilterBestTrackStates" />
    <edge source="GaudiSequencer/OutputDSTSeq" target="GaudiSequencer/RawEventSplitSeq" />
    <edge source="GaudiSequencer/RecoVELOSeq" target="FastVeloTracking/FastVeloTracking" />
    <edge source="GaudiSequencer/PrsDigitsSeq" target="RawBankReadoutStatusConverter/PrsProcStatus" />
    <edge source="GaudiSequencer/PrsDigitsSeq" target="CaloDigitsFromRaw/PrsFromRaw" />
    <edge source="GaudiSequencer/HltFilterSeq" target="HltDecReportsDecoder/HltDecReportsDecoder" />
    <edge source="GaudiSequencer/HltFilterSeq" target="HltRoutingBitsFilter/PhysFilter" />
    <edge source="GaudiSequencer/HltFilterSeq" target="LoKi::HDRFilter/HltErrorFilter" />
    <edge source="GaudiSequencer/TrackDownstreamPatSeq" target="PatDownstream/PatDownstream" />
    <edge source="GaudiSequencer/RecoCALOSeq" target="GaudiSequencer/CaloProcessorCaloSeq" />
    <edge source="GaudiSequencer/PhotonReco" target="GaudiSequencer/CaloTrackMatch" />
    <edge source="GaudiSequencer/PhotonReco" target="CaloSinglePhotonAlg/SinglePhotonRec" />
    <edge source="ProcessPhase/Output" target="GaudiSequencer/OutputDSTSeq" />
    <edge source="GaudiSequencer/RichPIDMoni" target="Rich::Rec::MC::PIDQC/RiPIDMonLong2To100" />
    <edge source="GaudiSequencer/RichPIDMoni" target="Rich::Rec::MC::PIDQC/RiPIDMonLong2To10" />
    <edge source="GaudiSequencer/RichPIDMoni" target="Rich::Rec::MC::PIDQC/RiPIDMonLong10To70" />
    <edge source="GaudiSequencer/RichPIDMoni" target="Rich::Rec::MC::PIDQC/RiPIDMonLong70To100" />
    <edge source="GaudiSequencer/RecoSUMMARYSeq" target="RecSummaryAlg/RecSummary" />
    <edge source="GaudiSequencer/MoniTrSeq" target="TrackDiMuonMonitor/TrackDiMuonMonitor" />
    <edge source="GaudiSequencer/MoniTrSeq" target="TrackCaloMatchMonitor/TrackEcalMatchMonitor" />
    <edge source="GaudiSequencer/MoniTrSeq" target="TrackITOverlapMonitor/TrackITOverlapMonitor" />
    <edge source="GaudiSequencer/MoniTrSeq" target="TrackVertexMonitor/TrackVertexMonitor" />
    <edge source="GaudiSequencer/MoniTrSeq" target="TrackFitMatchMonitor/TrackFitMatchMonitor" />
    <edge source="GaudiSequencer/MoniTrSeq" target="ITTrackMonitor/ITTrackMonitor" />
    <edge source="GaudiSequencer/MoniTrSeq" target="TrackMonitor/TrackMonitor" />
    <edge source="GaudiSequencer/MoniTrSeq" target="TrackPV2HalfAlignMonitor/TrackPV2HalfAlignMonitor" />
    <edge source="GaudiSequencer/MoniTrSeq" target="TrackV0Monitor/TrackV0Monitor" />
    <edge source="GaudiSequencer/MoniTrSeq" target="TrackMuonMatchMonitor/TrackMuonMatchMonitor" />
    <edge source="GaudiSequencer/MoniTrSeq" target="TTTrackMonitor/TTTrackMonitor" />
    <edge source="GaudiSequencer/MoniTrSeq" target="TrackCaloMatchMonitor/TrackSpdMatchMonitor" />
    <edge source="GaudiSequencer/MoniTrSeq" target="AlignmentOnlineMonitor/AlignmentOnlineMonitor" />
    <edge source="GaudiSequencer/MoniTrSeq" target="TrackVeloOverlapMonitor/TrackVeloOverlapMonitor" />
    <edge source="GaudiSequencer/MoniTrSeq" target="TrackAlignMonitor/TrackAlignMonitor" />
    <edge source="GaudiSequencer/MoniTrSeq" target="TrackCaloMatchMonitor/TrackPrsMatchMonitor" />
    <edge source="GaudiSequencer/TrackAddExtraInfoSeq" target="TrackAddNNGhostId/TrackAddNNGhostId" />
    <edge source="GaudiSequencer/TrackAddExtraInfoSeq" target="TrackAddLikelihood/TrackAddLikelihood" />
    <edge source="GaudiSequencer/TrackAddExtraInfoSeq" target="GaudiSequencer/TrackClonesSeq" />
    <edge source="GaudiSequencer/MoniPROTOSeq" target="ChargedProtoParticleMoni/ChargedProtoPMoni" />
    <edge source="GaudiSequencer/MoniPROTOSeq" target="ANNGlobalPID::ChargedProtoANNPIDMoni/ChargedProtoANNPIDMoni" />
    <edge source="GaudiSequencer/CaloClustersMoni" target="CaloClusterMonitor/EcalClusterMon" />
    <edge source="GaudiSequencer/TrackClonesSeq" target="TrackBuildCloneTable/FindTrackClones" />
    <edge source="GaudiSequencer/TrackClonesSeq" target="TrackCloneCleaner/FlagTrackClones" />
    <edge source="GaudiSequencer/CaloEFlowMoni" target="CaloEFlowAlg/EcalEFlowMon" />
    <edge source="GaudiSequencer/CaloTrackMatch" target="InEcalAcceptanceAlg/InECAL" />
    <edge source="GaudiSequencer/CaloTrackMatch" target="PhotonMatchAlg/ClusterMatch" />
    <edge source="GaudiSequencer/ChargedProtoParticles" target="ChargedProtoParticleAddHcalInfo/ChargedProtoPAddHcal" />
    <edge source="GaudiSequencer/ChargedProtoParticles" target="ChargedProtoParticleAddEcalInfo/ChargedProtoPAddEcal" />
    <edge source="GaudiSequencer/ChargedProtoParticles" target="ChargedProtoParticleAddBremInfo/ChargedProtoPAddBrem" />
    <edge source="GaudiSequencer/ChargedProtoParticles" target="ChargedProtoParticleMaker/ChargedProtoPMaker" />
    <edge source="GaudiSequencer/ChargedProtoParticles" target="ChargedProtoParticleAddRichInfo/ChargedProtoPAddRich" />
    <edge source="GaudiSequencer/ChargedProtoParticles" target="ChargedProtoCombineDLLsAlg/ChargedProtoPCombDLLs" />
    <edge source="GaudiSequencer/ChargedProtoParticles" target="ChargedProtoParticleAddPrsInfo/ChargedProtoPAddPrs" />
    <edge source="GaudiSequencer/ChargedProtoParticles" target="GaudiSequencer/ANNGPIDSeq" />
    <edge source="GaudiSequencer/ChargedProtoParticles" target="ChargedProtoParticleAddSpdInfo/ChargedProtoPAddSpd" />
    <edge source="GaudiSequencer/ChargedProtoParticles" target="ChargedProtoParticleAddVeloInfo/ChargedProtoPAddVeloDEDX" />
    <edge source="GaudiSequencer/ChargedProtoParticles" target="ChargedProtoParticleAddMuonInfo/ChargedProtoPAddMuon" />
    <edge source="GaudiSequencer/MoniRICHSeq" target="GaudiSequencer/RichTrackMoni" />
    <edge source="GaudiSequencer/MoniRICHSeq" target="GaudiSequencer/RichRawMoni" />
    <edge source="GaudiSequencer/MoniRICHSeq" target="GaudiSequencer/RichRecoMoni" />
    <edge source="GaudiSequencer/MoniRICHSeq" target="GaudiSequencer/RichHPDIonFeedback" />
    <edge source="GaudiSequencer/MoniRICHSeq" target="GaudiSequencer/RichMirrAlignMoni" />
    <edge source="GaudiSequencer/MoniRICHSeq" target="GaudiSequencer/RichPIDMoni" />
    <edge source="GaudiSequencer/MoniRICHSeq" target="GaudiSequencer/RichENNTracklessRingsMoni" />
    <edge source="GaudiSequencer/MoniRICHSeq" target="GaudiSequencer/RichRecoMoniTight" />
    <edge source="GaudiSequencer/MoniRICHSeq" target="GaudiSequencer/RichPixelMoni" />
    <edge source="GaudiSequencer/RichOfflineGPIDInitSeq" target="Rich::Rec::GlobalPID::Initialize/RichOfflineGPIDInit" />
    <edge source="GaudiSequencer/RichOfflineGPIDInitSeq" target="Rich::Rec::GlobalPID::DigitSel/RichOfflineGPIDDigSel" />
    <edge source="GaudiSequencer/RichOfflineGPIDInitSeq" target="Rich::Rec::GlobalPID::TrackSel/RichOfflineGPIDTrSel" />
    <edge source="GaudiSequencer/CaloPIDsCaloPIDsForCaloProcessor" target="GaudiSequencer/NeutralPIDsCaloPIDsForCaloProcessor" />
    <edge source="GaudiSequencer/CaloPIDsCaloPIDsForCaloProcessor" target="GaudiSequencer/ChargedPIDsCaloPIDsForCaloProcessor" />
    <edge source="GaudiSequencer/CaloBanksHandler" target="GaudiSequencer/CaloDigits" />
    <edge source="GaudiSequencer/RecoPROTOSeq" target="GaudiSequencer/NeutralProtoParticles" />
    <edge source="GaudiSequencer/RecoPROTOSeq" target="GaudiSequencer/ChargedProtoParticles" />
    <edge source="GaudiSequencer/RichRawDataSizeL0Seq" target="LoKi::L0Filter/RichL0Filter" />
    <edge source="GaudiSequencer/RichRawDataSizeL0Seq" target="Rich::DAQ::RawDataSize/RichRawDataSizeL0" />
    <edge source="GaudiSequencer/RichRawDataSizeL0Seq" target="LoKi::HDRFilter/RichHlt1Filter" />
    <edge source="GaudiSequencer/RecoMUONSeq" target="GaudiSequencer/MuonIDSeq" />
    <edge source="GaudiSequencer/RecoMUONSeq" target="MuonRec" />
    <edge source="GaudiSequencer/RecoMUONSeq" target="RawBankReadoutStatusFilter/MuonROFilter" />
    <edge source="GaudiSequencer/RecoMUONSeq" target="RawBankReadoutStatusConverter/MuonProcStatus" />
    <edge source="GaudiSequencer/RichOfflineGPIDLLSeq" target="Rich::Rec::GlobalPID::Likelihood/RichOfflineGPIDLLIt0" />
    <edge source="GaudiSequencer/RichOfflineGPIDLLSeq" target="Rich::Rec::GlobalPID::Likelihood/RichOfflineGPIDLLIt1" />
    <edge source="GaudiSequencer/RichOfflineGPIDLLSeq" target="Rich::Rec::PixelBackgroundAlg/RichOfflineBckEstIt1" />
    <edge source="GaudiSequencer/RichOfflineGPIDLLSeq" target="Rich::Rec::PixelBackgroundAlg/RichOfflineBckEstIt0" />
    <edge source="GaudiSequencer/LumiCounters" target="GaudiSequencer/LumiBeam2Seq" />
    <edge source="GaudiSequencer/LumiCounters" target="GaudiSequencer/LumiBeam1Seq" />
    <edge source="GaudiSequencer/LumiCounters" target="GaudiSequencer/TimeSpanSeq" />
    <edge source="GaudiSequencer/LumiCounters" target="GaudiSequencer/LumiBeamCrossingSeq" />
    <edge source="GaudiSequencer/LumiCounters" target="GaudiSequencer/LumiNoBeamSeq" />
    <edge source="GaudiSequencer/LumiCounters" target="EventAccounting/EventAccount" />
    <edge source="GaudiSequencer/InCaloAcceptance" target="InPrsAcceptanceAlg/InPRS" />
    <edge source="GaudiSequencer/InCaloAcceptance" target="InEcalAcceptanceAlg/InECAL" />
    <edge source="GaudiSequencer/InCaloAcceptance" target="InSpdAcceptanceAlg/InSPD" />
    <edge source="GaudiSequencer/InCaloAcceptance" target="InHcalAcceptanceAlg/InHCAL" />
    <edge source="GaudiSequencer/InCaloAcceptance" target="InBremAcceptanceAlg/InBREM" />
    <edge source="GaudiSequencer/RichRecoMoni" target="Rich::Rec::MC::RecoQC/RiCKResForward" />
    <edge source="GaudiSequencer/RichRecoMoni" target="Rich::Rec::MC::RecoQC/RiCKResSeed" />
    <edge source="GaudiSequencer/RichRecoMoni" target="Rich::Rec::MC::RecoQC/RiCKResLong" />
    <edge source="GaudiSequencer/RichRecoMoni" target="Rich::Rec::MC::RecoQC/RiCKResVeloTT" />
    <edge source="GaudiSequencer/RichRecoMoni" target="Rich::Rec::MC::RecoQC/RiCKResKsTrack" />
    <edge source="GaudiSequencer/RichRecoMoni" target="Rich::Rec::MC::RecoQC/RiCKResMatch" />
    <edge source="GaudiSequencer/MoniCALOSeq" target="GaudiSequencer/DiPhotonMoni" />
    <edge source="GaudiSequencer/MoniCALOSeq" target="GaudiSequencer/CaloDigitsMoni" />
    <edge source="GaudiSequencer/MoniCALOSeq" target="CaloProtoElectronMonitor/ProtoElectronMon" />
    <edge source="GaudiSequencer/MoniCALOSeq" target="GaudiSequencer/CaloEFlowMoni" />
    <edge source="GaudiSequencer/MoniCALOSeq" target="GaudiSequencer/CaloPIDsMoni" />
    <edge source="GaudiSequencer/MoniCALOSeq" target="GaudiSequencer/CaloClustersMoni" />
    <edge source="GaudiSequencer/MoniCALOSeq" target="GaudiSequencer/CaloHyposMoni" />
    <edge source="GaudiSequencer/NeutralPIDsCaloPIDsForCaloProcessor" target="CaloPhotonIdAlg/MergedID" />
    <edge source="GaudiSequencer/NeutralPIDsCaloPIDsForCaloProcessor" target="CaloPhotonIdAlg/PhotonFromMergedID" />
    <edge source="GaudiSequencer/NeutralPIDsCaloPIDsForCaloProcessor" target="CaloPhotonIdAlg/PhotonID" />
    <edge source="GaudiSequencer/TrackVeloTTPatSeq" target="PatVeloTT/PatVeloTT" />
    <edge source="GaudiSequencer/TimeSpanSeq" target="TimeAccounting/TimeSpanAccounting" />
    <edge source="GaudiSequencer/TimeSpanSeq" target="LoKi::ODINFilter/TimeSpanFilter" />
    <edge source="GaudiSequencer/MoniMUONSeq" target="TrackEventFitter/MuonTrackFitter" />
    <edge source="GaudiSequencer/MoniMUONSeq" target="MuonPIDChecker/MuonPIDMonitorLong" />
    <edge source="GaudiSequencer/MoniMUONSeq" target="MuonTrackAligMonitor/MuonTrackAligMonitor" />
    <edge source="ProcessPhase/Init" target="GaudiSequencer/InitBrunelSeq" />
    <edge source="GaudiSequencer/TrackSeedPatSeq" target="PatSeeding/PatSeeding" />
    <edge source="GaudiSequencer/PackDST" target="PackTrack/PackTracks" />
    <edge source="GaudiSequencer/PackDST" target="PackTrack/PackMuonTracks" />
    <edge source="GaudiSequencer/PackDST" target="DataPacking::Pack&lt;LHCb::MuonPIDPacker&gt;/PackMuonPIDs" />
    <edge source="GaudiSequencer/PackDST" target="DataPacking::Pack&lt;LHCb::RichPIDPacker&gt;/PackRichPIDs" />
    <edge source="GaudiSequencer/PackDST" target="ChargedProtoParticleRemovePIDInfo/ProtoParticlePIDClean" />
    <edge source="GaudiSequencer/PackDST" target="PackProtoParticle/PackNeutralProtos" />
    <edge source="GaudiSequencer/PackDST" target="PackRecVertex/PackRecVertex" />
    <edge source="GaudiSequencer/PackDST" target="GaudiSequencer/CaloPacking" />
    <edge source="GaudiSequencer/PackDST" target="PackTwoProngVertex/PackTwoProngVertex" />
    <edge source="GaudiSequencer/PackDST" target="PackProtoParticle/PackChargedProtos" />
    <edge source="GaudiSequencer/RichHPDIonFeedback" target="Rich::Mon::HPDIonFeedbackMoni/RichHPDIFBMoni" />
    <edge source="GaudiSequencer/RichOfflinePhotonsSeq" target="Rich::Rec::Initialise/CreateOfflinePhotons" />
    <edge source="GaudiSequencer/RichRecInitOfflineSeq" target="GaudiSequencer/RichOfflinePixelsSeq" />
    <edge source="GaudiSequencer/RichRecInitOfflineSeq" target="GaudiSequencer/RichOfflineTracksSeq" />
    <edge source="GaudiSequencer/RichRecInitOfflineSeq" target="Rich::Rec::Initialise/CheckProcOfflineStatus" />
    <edge source="GaudiSequencer/RichRecInitOfflineSeq" target="GaudiSequencer/RichOfflinePhotonsSeq" />
    <edge source="GaudiSequencer/RichTrackMoni" target="Rich::Rec::MC::TrackSelEff/RiLongTrkEff" />
    <edge source="GaudiSequencer/RichTrackMoni" target="Rich::Rec::MC::TrackSelEff/RiVeloTTTrkEff" />
    <edge source="GaudiSequencer/RichTrackMoni" target="Rich::Rec::MC::TrackSelEff/RiMatchTrkEff" />
    <edge source="GaudiSequencer/RichTrackMoni" target="Rich::Rec::MC::TrackSelEff/RiSeedTrkEff" />
    <edge source="GaudiSequencer/RichTrackMoni" target="Rich::Rec::MC::TrackSelEff/RiForwardTrkEff" />
    <edge source="GaudiSequencer/RichTrackMoni" target="Rich::Rec::MC::TrackSelEff/RiKsTrackTrkEff" />
    <edge source="GaudiSequencer/LumiBeam1Seq" target="FilterFillingScheme/FillingBeam1" />
    <edge source="GaudiSequencer/LumiBeam1Seq" target="FilterOnLumiSummary/LumiFilterBeam1" />
    <edge source="GaudiSequencer/LumiBeam1Seq" target="LumiAccounting/LumiCountBeam1" />
    <edge source="GaudiSequencer/LumiBeam1Seq" target="LoKi::ODINFilter/FilterBeam1" />
    <edge source="GaudiSequencer/LumiBeam1Seq" target="HltLumiSummaryDecoder/LumiDecodeBeam1" />
    <edge source="GaudiSequencer/RecoRICHSeq" target="GaudiSequencer/RichRecInitOfflineSeq" />
    <edge source="GaudiSequencer/RecoRICHSeq" target="GaudiSequencer/RichOfflinePIDSeq" />
    <edge source="GaudiSequencer/RecoRICHSeq" target="GaudiSequencer/RichOfflineENNRingFinderSeq" />
    <edge source="GaudiSequencer/RichOfflineENNRingFinderSeq" target="Rich::Rec::TracklessRingIsolationAlg/OfflineIsolatedENNRings" />
    <edge source="GaudiSequencer/RichOfflineENNRingFinderSeq" target="Rich::Rec::ENNRingFinder::Rich2GasRightPanel/OfflineENNFinderR2GasRight" />
    <edge source="GaudiSequencer/RichOfflineENNRingFinderSeq" target="Rich::Rec::ENNRingFinder::Rich1GasTopPanel/OfflineENNFinderR1GasTop" />
    <edge source="GaudiSequencer/RichOfflineENNRingFinderSeq" target="Rich::Rec::ENNRingFinder::Rich2GasLeftPanel/OfflineENNFinderR2GasLeft" />
    <edge source="GaudiSequencer/RichOfflineENNRingFinderSeq" target="Rich::Rec::TracklessRingFilterAlg/OfflineBestENNRings" />
    <edge source="GaudiSequencer/RichOfflineENNRingFinderSeq" target="Rich::Rec::ENNRingFinder::Rich1GasBottomPanel/OfflineENNFinderR1GasBottom" />
    <edge source="GaudiSequencer/RichOfflineENNRingFinderSeq" target="Rich::Rec::TracklessRingSegmentAssociationAlg/OfflineENNRingsSegAssoc" />
    <edge source="GaudiSequencer/HcalDigitsSeq" target="CaloZSupAlg/HcalZSup" />
    <edge source="GaudiSequencer/HcalDigitsSeq" target="RawBankReadoutStatusConverter/HcalProcStatus" />
    <edge source="GaudiSequencer/CaloPIDsMoni" target="CaloClusterMatchMonitor/PhotonMatchMon" />
    <edge source="GaudiSequencer/CaloPIDsMoni" target="CaloEMuPIDMon/CaloEMuPIDMonUncut" />
    <edge source="GaudiSequencer/CaloPIDsMoni" target="CaloHypoMatchMonitor/BremMatchMon" />
    <edge source="GaudiSequencer/CaloPIDsMoni" target="CaloHypoMatchMonitor/ElectronMatchMon" />
    <edge source="GaudiSequencer/CaloPIDsMoni" target="CaloEMuPIDMon/CaloEMuPIDMonSoft" />
    <edge source="GaudiSequencer/CaloPIDsMoni" target="CaloEMuPIDMon/CaloEMuPIDMonHard" />
    <edge source="GaudiSequencer/InitBrunelSeq" target="RecInit/BrunelInit" />
    <edge source="GaudiSequencer/InitBrunelSeq" target="EventCountHisto/BrunelEventCount" />
    <edge source="GaudiSequencer/DiPhotonMoni" target="CaloPi0Monitor/EtaMon" />
    <edge source="GaudiSequencer/DiPhotonMoni" target="CaloPi0Monitor/ResolvedPi0Mon" />
    <edge source="GaudiSequencer/RecoVertexSeq" target="TrackV0Finder/TrackV0Finder" />
    <edge source="GaudiSequencer/RecoVertexSeq" target="PatPVOffline/PatPVOffline" />
    <edge source="GaudiSequencer/LumiNoBeamSeq" target="FilterOnLumiSummary/LumiFilterNoBeam" />
    <edge source="GaudiSequencer/LumiNoBeamSeq" target="HltLumiSummaryDecoder/LumiDecodeNoBeam" />
    <edge source="GaudiSequencer/LumiNoBeamSeq" target="LumiAccounting/LumiCountNoBeam" />
    <edge source="GaudiSequencer/LumiNoBeamSeq" target="LoKi::ODINFilter/FilterNoBeam" />
    <edge source="GaudiSequencer/TrackMatchPatSeq" target="PatMatch/PatMatch" />
    <edge source="GaudiSequencer/RichOfflineGPIDSeq" target="Rich::Rec::GlobalPID::Finalize/RichOfflineGPIDFin" />
    <edge source="GaudiSequencer/RichOfflineGPIDSeq" target="GaudiSequencer/RichOfflineGPIDInitSeq" />
    <edge source="GaudiSequencer/RichOfflineGPIDSeq" target="GaudiSequencer/RichOfflineGPIDLLSeq" />
    <edge source="ProcessPhase/Track" target="GaudiSequencer/TrackDownstreamPatSeq" />
    <edge source="ProcessPhase/Track" target="GaudiSequencer/TrackAddExtraInfoSeq" />
    <edge source="ProcessPhase/Track" target="GaudiSequencer/TrackForwardPatSeq" />
    <edge source="ProcessPhase/Track" target="GaudiSequencer/TrackEraseExtraInformationSeq" />
    <edge source="ProcessPhase/Track" target="GaudiSequencer/TrackMatchPatSeq" />
    <edge source="ProcessPhase/Track" target="GaudiSequencer/TrackSeedPatSeq" />
    <edge source="ProcessPhase/Track" target="GaudiSequencer/TrackVeloTTPatSeq" />
    <edge source="ProcessPhase/Track" target="GaudiSequencer/TrackFitSeq" />
    <edge source="GaudiSequencer/CaloDigits" target="GaudiSequencer/PrsDigitsSeq" />
    <edge source="GaudiSequencer/CaloDigits" target="GaudiSequencer/EcalDigitsSeq" />
    <edge source="GaudiSequencer/CaloDigits" target="GaudiSequencer/HcalDigitsSeq" />
    <edge source="GaudiSequencer/CaloDigits" target="CaloDigitsFromRaw/SpdFromRaw" />
    <edge source="GaudiSequencer/TrackEraseExtraInformationSeq" target="TrackEraseExtraInfo/TrackEraseExtraInfo" />
    <edge source="GaudiSequencer/LumiBeamCrossingSeq" target="LoKi::ODINFilter/FilterBeamCrossing" />
    <edge source="GaudiSequencer/LumiBeamCrossingSeq" target="LumiAccounting/LumiCountBeamCrossing" />
    <edge source="GaudiSequencer/LumiBeamCrossingSeq" target="HltLumiSummaryDecoder/LumiDecodeBeamCrossing" />
    <edge source="GaudiSequencer/LumiBeamCrossingSeq" target="FilterOnLumiSummary/LumiFilterBeamCrossing" />
    <edge source="GaudiSequencer/DecodeTriggerSeq" target="HltDecReportsDecoder/HltDecReportsDecoder" />
    <edge source="GaudiSequencer/DecodeTriggerSeq" target="GaudiSequencer/L0TriggerSeq" />
    <edge source="GaudiSequencer/ClusterReco" target="CaloSharedCellAlg/EcalShare" />
    <edge source="GaudiSequencer/ClusterReco" target="CaloDigitFilterAlg/CaloDigitFilter" />
    <edge source="GaudiSequencer/ClusterReco" target="CaloClusterCovarianceAlg/EcalCovar" />
    <edge source="GaudiSequencer/ClusterReco" target="GaudiSequencer/CaloDigits" />
    <edge source="GaudiSequencer/ClusterReco" target="CellularAutomatonAlg/EcalClust" />
    <edge source="GaudiSequencer/TrackFitSeq" target="TrackBestTrackCreator/TrackBestTrackCreator" />
    <edge source="GaudiSequencer/RichOfflinePixelsSeq" target="Rich::DAQ::RawBufferToRichDigitsAlg/DecodeRawRichOffline" />
    <edge source="GaudiSequencer/RichOfflinePixelsSeq" target="Rich::Rec::Initialise/CreateOfflinePixels" />
    <edge source="GaudiSequencer/ChargedPIDsCaloPIDsForCaloProcessor" target="GaudiSequencer/CaloMatch" />
    <edge source="GaudiSequencer/ChargedPIDsCaloPIDsForCaloProcessor" target="GaudiSequencer/CaloDLLmu" />
    <edge source="GaudiSequencer/ChargedPIDsCaloPIDsForCaloProcessor" target="GaudiSequencer/CaloDLLe" />
    <edge source="GaudiSequencer/ChargedPIDsCaloPIDsForCaloProcessor" target="GaudiSequencer/CaloEnergy" />
    <edge source="GaudiSequencer/ChargedPIDsCaloPIDsForCaloProcessor" target="GaudiSequencer/InCaloAcceptance" />
    <edge source="GaudiSequencer/ChargedPIDsCaloPIDsForCaloProcessor" target="GaudiSequencer/CaloChi2" />
    <edge source="GaudiSequencer/MoniVELOSeq" target="Velo::VeloClusterMonitor/VeloClusterMonitor" />
    <edge source="GaudiSequencer/MoniVELOSeq" target="Velo::VeloIPResolutionMonitor/VeloIPResolutionMonitor" />
    <edge source="GaudiSequencer/MoniVELOSeq" target="Velo::VeloTrackMonitor/VeloTrackMonitor" />
    <edge source="ProcessPhase/Moni" target="GaudiSequencer/MoniSTSeq" />
    <edge source="ProcessPhase/Moni" target="GaudiSequencer/MoniCALOSeq" />
    <edge source="ProcessPhase/Moni" target="GaudiSequencer/MoniPROTOSeq" />
    <edge source="ProcessPhase/Moni" target="GaudiSequencer/MoniOTSeq" />
    <edge source="ProcessPhase/Moni" target="GaudiSequencer/MoniRICHSeq" />
    <edge source="ProcessPhase/Moni" target="GaudiSequencer/MoniMUONSeq" />
    <edge source="ProcessPhase/Moni" target="GaudiSequencer/MoniHltSeq" />
    <edge source="ProcessPhase/Moni" target="GaudiSequencer/MoniVELOSeq" />
    <edge source="ProcessPhase/Moni" target="GaudiSequencer/MoniGENERALSeq" />
    <edge source="ProcessPhase/Moni" target="GaudiSequencer/MoniTrSeq" />
    <edge source="GaudiSequencer/CaloDigitsMoni" target="CaloDigitMonitor/HcalDigitMon" />
    <edge source="GaudiSequencer/CaloDigitsMoni" target="CaloDigitMonitor/SpdDigitMon" />
    <edge source="GaudiSequencer/CaloDigitsMoni" target="SpdMonitor/SpdMon" />
    <edge source="GaudiSequencer/CaloDigitsMoni" target="CaloDigitMonitor/EcalDigitMon" />
    <edge source="GaudiSequencer/CaloDigitsMoni" target="CaloDigitMonitor/PrsDigitMon" />
    <edge source="GaudiSequencer/RichPixelMoni" target="Rich::Rec::MC::PixelQC/RichRecPixelQC" />
    <edge source="GaudiSequencer/RichPixelMoni" target="Rich::Rec::PixelClusterMoni/RichRecPixelClusters" />
    <edge source="GaudiSequencer/CaloDLLe" target="EcalPIDeAlg/EcalPIDe" />
    <edge source="GaudiSequencer/CaloDLLe" target="HcalPIDeAlg/HcalPIDe" />
    <edge source="GaudiSequencer/CaloDLLe" target="BremPIDeAlg/BremPIDe" />
    <edge source="GaudiSequencer/CaloDLLe" target="PrsPIDeAlg/PrsPIDe" />
    <edge source="GaudiSequencer/MoniHltSeq" target="HltCompositionMonitor/HltCompositionMonitor" />
    <edge source="GaudiSequencer/MoniHltSeq" target="HltRateMonitor/HltRateMonitorMB" />
    <edge source="GaudiSequencer/MoniHltSeq" target="EventTimeMonitor/EventTimeMonitor" />
    <edge source="GaudiSequencer/MoniHltSeq" target="HltRateMonitor/HltRateMonitor" />
    <edge source="GaudiSequencer/MoniHltSeq" target="HltDecReportsDecoder/HltDecReportsDecoder" />
    <edge source="GaudiSequencer/MoniHltSeq" target="MuMonitor/MuMonitor" />
    <edge source="GaudiSequencer/ANNGPIDSeq" target="ANNGlobalPID::ChargedProtoANNPIDAlg/ANNGPIDDownstreamGhost" />
    <edge source="GaudiSequencer/ANNGPIDSeq" target="ANNGlobalPID::ChargedProtoANNPIDAlg/ANNGPIDDownstreamElectron" />
    <edge source="GaudiSequencer/ANNGPIDSeq" target="ANNGlobalPID::ChargedProtoANNPIDAlg/ANNGPIDDownstreamKaon" />
    <edge source="GaudiSequencer/ANNGPIDSeq" target="ANNGlobalPID::ChargedProtoANNPIDAlg/ANNGPIDLongPion" />
    <edge source="GaudiSequencer/ANNGPIDSeq" target="ANNGlobalPID::ChargedProtoANNPIDAlg/ANNGPIDUpstreamElectron" />
    <edge source="GaudiSequencer/ANNGPIDSeq" target="ANNGlobalPID::ChargedProtoANNPIDAlg/ANNGPIDUpstreamMuon" />
    <edge source="GaudiSequencer/ANNGPIDSeq" target="ANNGlobalPID::ChargedProtoANNPIDAlg/ANNGPIDLongProton" />
    <edge source="GaudiSequencer/ANNGPIDSeq" target="ANNGlobalPID::ChargedProtoANNPIDAlg/ANNGPIDUpstreamPion" />
    <edge source="GaudiSequencer/ANNGPIDSeq" target="ANNGlobalPID::ChargedProtoANNPIDAlg/ANNGPIDLongMuon" />
    <edge source="GaudiSequencer/ANNGPIDSeq" target="ANNGlobalPID::ChargedProtoANNPIDAlg/ANNGPIDLongElectron" />
    <edge source="GaudiSequencer/ANNGPIDSeq" target="ANNGlobalPID::ChargedProtoANNPIDAlg/ANNGPIDLongGhost" />
    <edge source="GaudiSequencer/ANNGPIDSeq" target="ANNGlobalPID::ChargedProtoANNPIDAlg/ANNGPIDDownstreamMuon" />
    <edge source="GaudiSequencer/ANNGPIDSeq" target="ANNGlobalPID::ChargedProtoANNPIDAlg/ANNGPIDDownstreamPion" />
    <edge source="GaudiSequencer/ANNGPIDSeq" target="ANNGlobalPID::ChargedProtoANNPIDAlg/ANNGPIDUpstreamProton" />
    <edge source="GaudiSequencer/ANNGPIDSeq" target="ANNGlobalPID::ChargedProtoANNPIDAlg/ANNGPIDLongKaon" />
    <edge source="GaudiSequencer/ANNGPIDSeq" target="ANNGlobalPID::ChargedProtoANNPIDAlg/ANNGPIDUpstreamKaon" />
    <edge source="GaudiSequencer/ANNGPIDSeq" target="ANNGlobalPID::ChargedProtoANNPIDAlg/ANNGPIDDownstreamProton" />
    <edge source="GaudiSequencer/ANNGPIDSeq" target="ANNGlobalPID::ChargedProtoANNPIDAlg/ANNGPIDUpstreamGhost" />
    <edge source="GaudiSequencer/RichRawMoni" target="Rich::DAQ::RawDataSize/RichRawDataSize" />
    <edge source="GaudiSequencer/RichRawMoni" target="Rich::DAQ::DataDBCheck/RichRawDataDBCheck" />
    <edge source="GaudiSequencer/RichRawMoni" target="Rich::DAQ::DataDecodingErrorMoni/RichDecodingErrors" />
    <edge source="GaudiSequencer/RichRawMoni" target="GaudiSequencer/RichRawDataSizeL0Seq" />
    <edge source="GaudiSequencer/RichRawMoni" target="Rich::HPDAnalysisAlg/RichHotPixels" />
    <edge source="GaudiSequencer/MoniGENERALSeq" target="RecProcessingTimeMoni/VertexEventProcTime" />
    <edge source="GaudiSequencer/MoniGENERALSeq" target="RecProcessingTimeMoni/TrackEventProcTime" />
    <edge source="GaudiSequencer/MoniGENERALSeq" target="RecProcessingTimeMoni/MuonEventProcTime" />
    <edge source="GaudiSequencer/MoniGENERALSeq" target="RecProcessingTimeMoni/ProtoEventProcTime" />
    <edge source="GaudiSequencer/MoniGENERALSeq" target="RecProcessingTimeMoni/OverallEventProcTime" />
    <edge source="GaudiSequencer/MoniGENERALSeq" target="RecProcessingTimeMoni/RichEventProcTime" />
    <edge source="GaudiSequencer/MoniGENERALSeq" target="ProcStatAbortMoni/ProcStatAbortMoni" />
    <edge source="GaudiSequencer/MoniGENERALSeq" target="RecProcessingTimeMoni/CaloEventProcTime" />
    <edge source="GaudiSequencer/CaloMatch" target="BremMatchAlg/BremMatch" />
    <edge source="GaudiSequencer/CaloMatch" target="GaudiSequencer/CaloTrackMatch" />
    <edge source="GaudiSequencer/CaloMatch" target="ElectronMatchAlg/ElectronMatch" />
    <edge source="GaudiSequencer/BrunelSequencer" target="FakeAlgorithm/Framework" />
    <edge source="GaudiSequencer/BrunelSequencer" target="GaudiSequencer/NotPhysicsSeq" />
    <edge source="GaudiSequencer/BrunelSequencer" target="ProcessPhase/Output" />
    <edge source="GaudiSequencer/BrunelSequencer" target="GaudiSequencer/HltErrorSeq" />
    <edge source="GaudiSequencer/BrunelSequencer" target="GaudiSequencer/LumiSeq" />
    <edge source="GaudiSequencer/BrunelSequencer" target="GaudiAlgorithm/DstWriter" />
    <edge source="GaudiSequencer/BrunelSequencer" target="GaudiSequencer/PhysicsSeq" />
    <edge source="GaudiSequencer/BrunelSequencer" target="ProcessPhase/Init" />
    <edge source="GaudiSequencer/MergedPi0Reco" target="CaloMergedPi0Alg/MergedPi0Rec" />
    <edge source="GaudiSequencer/RichRecoMoniTight" target="Rich::Rec::MC::RecoQC/RiCKResLongTight" />
    <edge source="GaudiSequencer/RichRecoMoniTight" target="Rich::Rec::MC::RecoQC/RiCKResMatchTight" />
    <edge source="GaudiSequencer/RichRecoMoniTight" target="Rich::Rec::MC::RecoQC/RiCKResForwardTight" />
    <edge source="GaudiSequencer/RichRecoMoniTight" target="Rich::Rec::MC::RecoQC/RiCKResVeloTTTight" />
    <edge source="GaudiSequencer/RichRecoMoniTight" target="Rich::Rec::MC::RecoQC/RiCKResSeedTight" />
    <edge source="GaudiSequencer/RichRecoMoniTight" target="Rich::Rec::MC::RecoQC/RiCKResKsTrackTight" />
    <edge source="GaudiSequencer/MoniOTSeq" target="OTTimeMonitor/OTTimeMonitor" />
    <edge source="GaudiSequencer/MoniOTSeq" target="OTHitEfficiencyMonitor/OTHitEfficiencyMonitor" />
    <edge source="GaudiSequencer/MoniOTSeq" target="OTTrackMonitor/OTTrackMonitor" />
    <edge source="ProcessPhase/Reco" target="GaudiSequencer/RecoTrSeq" />
    <edge source="ProcessPhase/Reco" target="GaudiSequencer/RecoCALOSeq" />
    <edge source="ProcessPhase/Reco" target="GaudiSequencer/RecoRICHSeq" />
    <edge source="ProcessPhase/Reco" target="GaudiSequencer/RecoPROTOSeq" />
    <edge source="ProcessPhase/Reco" target="GaudiSequencer/RecoITSeq" />
    <edge source="ProcessPhase/Reco" target="GaudiSequencer/RecoVertexSeq" />
    <edge source="ProcessPhase/Reco" target="GaudiSequencer/RecoTTSeq" />
    <edge source="ProcessPhase/Reco" target="GaudiSequencer/RecoVELOSeq" />
    <edge source="ProcessPhase/Reco" target="GaudiSequencer/RecoOTSeq" />
    <edge source="ProcessPhase/Reco" target="GaudiSequencer/RecoSUMMARYSeq" />
    <edge source="ProcessPhase/Reco" target="GaudiSequencer/RecoMUONSeq" />
    <edge source="ProcessPhase/Reco" target="GaudiSequencer/RecoDecodingSeq" />
    <edge source="GaudiSequencer/HltErrorSeq" target="AddToProcStatus/HltErrorProc" />
    <edge source="GaudiSequencer/HltErrorSeq" target="GaudiSequencer/HltFilterSeq" />
    <edge source="GaudiSequencer/RecoTrSeq" target="ProcessPhase/Track" />
    <edge source="GaudiSequencer/LumiBeam2Seq" target="FilterOnLumiSummary/LumiFilterBeam2" />
    <edge source="GaudiSequencer/LumiBeam2Seq" target="FilterFillingScheme/FillingBeam2" />
    <edge source="GaudiSequencer/LumiBeam2Seq" target="LumiAccounting/LumiCountBeam2" />
    <edge source="GaudiSequencer/LumiBeam2Seq" target="HltLumiSummaryDecoder/LumiDecodeBeam2" />
    <edge source="GaudiSequencer/LumiBeam2Seq" target="LoKi::ODINFilter/FilterBeam2" />
    <edge source="GaudiSequencer/ElectronReco" target="GaudiSequencer/CaloTrackMatch" />
    <edge source="GaudiSequencer/ElectronReco" target="CaloElectronAlg/SingleElectronRec" />
    <edge source="GaudiSequencer/CaloRecoForCaloProcessor" target="GaudiSequencer/MergedPi0Reco" />
    <edge source="GaudiSequencer/CaloRecoForCaloProcessor" target="GaudiSequencer/ElectronReco" />
    <edge source="GaudiSequencer/CaloRecoForCaloProcessor" target="GaudiSequencer/PhotonReco" />
    <edge source="GaudiSequencer/CaloRecoForCaloProcessor" target="GaudiSequencer/CaloDigits" />
    <edge source="GaudiSequencer/CaloRecoForCaloProcessor" target="GaudiSequencer/ClusterReco" />
    <edge source="GaudiSequencer/CaloHyposMoni" target="CaloHypoMonitor/SplitPhotonMon" />
    <edge source="GaudiSequencer/CaloHyposMoni" target="CaloHypoMonitor/MergedPi0Mon" />
    <edge source="GaudiSequencer/CaloHyposMoni" target="CaloHypoMonitor/PhotonMon" />
    <edge source="GaudiSequencer/CaloHyposMoni" target="CaloHypoMonitor/ElectronMon" />
    <edge source="GaudiSequencer/L0TriggerSeq" target="L0DUFromRawAlg/L0DUFromRaw" />
    <edge source="GaudiSequencer/CaloEnergy" target="Track2EcalEAlg/EcalE" />
    <edge source="GaudiSequencer/CaloEnergy" target="Track2HcalEAlg/HcalE" />
    <edge source="GaudiSequencer/CaloEnergy" target="Track2SpdEAlg/SpdE" />
    <edge source="GaudiSequencer/CaloEnergy" target="Track2PrsEAlg/PrsE" />
    <edge source="GaudiSequencer/MuonIDSeq" target="MuonIDAlg/MuonIDAlg" />
    <edge source="GaudiSequencer/EcalDigitsSeq" target="CaloZSupAlg/EcalZSup" />
    <edge source="GaudiSequencer/EcalDigitsSeq" target="RawBankReadoutStatusConverter/EcalProcStatus" />
    <edge source="GaudiSequencer/RawEventSplitSeq" target="RawEventMapCombiner/create_Trigger_RawEvent" />
    <edge source="GaudiSequencer/RawEventSplitSeq" target="RawEventMapCombiner/create_Calo_RawEvent" />
    <edge source="GaudiSequencer/RawEventSplitSeq" target="RawEventMapCombiner/create_Other_RawEvent" />
    <edge source="GaudiSequencer/RawEventSplitSeq" target="EventNodeKiller/KillRawEventNodes" />
    <edge source="GaudiSequencer/RawEventSplitSeq" target="RawEventMapCombiner/create_Rich_RawEvent" />
    <edge source="GaudiSequencer/RawEventSplitSeq" target="RawEventMapCombiner/create_Muon_RawEvent" />
    <edge source="GaudiSequencer/MoniSTSeq" target="ST::STClusterMonitor/TTClusterMonitor" />
    <edge source="GaudiSequencer/MoniSTSeq" target="ST::STClusterMonitor/ITClusterMonitor" />
    <edge source="GaudiSequencer/NotPhysicsSeq" target="HltRoutingBitsFilter/PhysFilter" />
    <edge source="GaudiSequencer/CaloPacking" target="PackCaloHypo/PackMergedPi0s" />
    <edge source="GaudiSequencer/CaloPacking" target="PackCaloHypo/PackPhotons" />
    <edge source="GaudiSequencer/CaloPacking" target="PackCaloHypo/PackElectrons" />
    <edge source="GaudiSequencer/CaloPacking" target="PackCaloHypo/PackSplitPhotons" />
    <edge source="GaudiSequencer/RichENNTracklessRingsMoni" target="Rich::Rec::MC::TracklessRingMoni/ENNRingMoniAll" />
    <edge source="GaudiSequencer/RichENNTracklessRingsMoni" target="Rich::Rec::MC::TracklessRingMoni/ENNRingMoniIsolated" />
    <edge source="GaudiSequencer/RichENNTracklessRingsMoni" target="Rich::Rec::MC::TracklessRingMoni/ENNRingMoniBest" />
  </graph>
</graphml>
